%!PS-Adobe-3.0
%%Creator: graphviz version 2.38.0 (20140413.2041)
%%Title: mapa-mundi
%%Pages: (atend)
%%BoundingBox: (atend)
%%EndComments
save
%%BeginProlog
/DotDict 200 dict def
DotDict begin

/setupLatin1 {
mark
/EncodingVector 256 array def
 EncodingVector 0

ISOLatin1Encoding 0 255 getinterval putinterval
EncodingVector 45 /hyphen put

% Set up ISO Latin 1 character encoding
/starnetISO {
        dup dup findfont dup length dict begin
        { 1 index /FID ne { def }{ pop pop } ifelse
        } forall
        /Encoding EncodingVector def
        currentdict end definefont
} def
/Times-Roman starnetISO def
/Times-Italic starnetISO def
/Times-Bold starnetISO def
/Times-BoldItalic starnetISO def
/Helvetica starnetISO def
/Helvetica-Oblique starnetISO def
/Helvetica-Bold starnetISO def
/Helvetica-BoldOblique starnetISO def
/Courier starnetISO def
/Courier-Oblique starnetISO def
/Courier-Bold starnetISO def
/Courier-BoldOblique starnetISO def
cleartomark
} bind def

%%BeginResource: procset graphviz 0 0
/coord-font-family /Times-Roman def
/default-font-family /Times-Roman def
/coordfont coord-font-family findfont 8 scalefont def

/InvScaleFactor 1.0 def
/set_scale {
       dup 1 exch div /InvScaleFactor exch def
       scale
} bind def

% styles
/solid { [] 0 setdash } bind def
/dashed { [9 InvScaleFactor mul dup ] 0 setdash } bind def
/dotted { [1 InvScaleFactor mul 6 InvScaleFactor mul] 0 setdash } bind def
/invis {/fill {newpath} def /stroke {newpath} def /show {pop newpath} def} bind def
/bold { 2 setlinewidth } bind def
/filled { } bind def
/unfilled { } bind def
/rounded { } bind def
/diagonals { } bind def
/tapered { } bind def

% hooks for setting color 
/nodecolor { sethsbcolor } bind def
/edgecolor { sethsbcolor } bind def
/graphcolor { sethsbcolor } bind def
/nopcolor {pop pop pop} bind def

/beginpage {	% i j npages
	/npages exch def
	/j exch def
	/i exch def
	/str 10 string def
	npages 1 gt {
		gsave
			coordfont setfont
			0 0 moveto
			(\() show i str cvs show (,) show j str cvs show (\)) show
		grestore
	} if
} bind def

/set_font {
	findfont exch
	scalefont setfont
} def

% draw text fitted to its expected width
/alignedtext {			% width text
	/text exch def
	/width exch def
	gsave
		width 0 gt {
			[] 0 setdash
			text stringwidth pop width exch sub text length div 0 text ashow
		} if
	grestore
} def

/boxprim {				% xcorner ycorner xsize ysize
		4 2 roll
		moveto
		2 copy
		exch 0 rlineto
		0 exch rlineto
		pop neg 0 rlineto
		closepath
} bind def

/ellipse_path {
	/ry exch def
	/rx exch def
	/y exch def
	/x exch def
	matrix currentmatrix
	newpath
	x y translate
	rx ry scale
	0 0 1 0 360 arc
	setmatrix
} bind def

/endpage { showpage } bind def
/showpage { } def

/layercolorseq
	[	% layer color sequence - darkest to lightest
		[0 0 0]
		[.2 .8 .8]
		[.4 .8 .8]
		[.6 .8 .8]
		[.8 .8 .8]
	]
def

/layerlen layercolorseq length def

/setlayer {/maxlayer exch def /curlayer exch def
	layercolorseq curlayer 1 sub layerlen mod get
	aload pop sethsbcolor
	/nodecolor {nopcolor} def
	/edgecolor {nopcolor} def
	/graphcolor {nopcolor} def
} bind def

/onlayer { curlayer ne {invis} if } def

/onlayers {
	/myupper exch def
	/mylower exch def
	curlayer mylower lt
	curlayer myupper gt
	or
	{invis} if
} def

/curlayer 0 def

%%EndResource
%%EndProlog
%%BeginSetup
14 default-font-family set_font
1 setmiterlimit
% /arrowlength 10 def
% /arrowwidth 5 def

% make sure pdfmark is harmless for PS-interpreters other than Distiller
/pdfmark where {pop} {userdict /pdfmark /cleartomark load put} ifelse
% make '<<' and '>>' safe on PS Level 1 devices
/languagelevel where {pop languagelevel}{1} ifelse
2 lt {
    userdict (<<) cvn ([) cvn load put
    userdict (>>) cvn ([) cvn load put
} if

%%EndSetup
setupLatin1
%%Page: 1 1
%%PageBoundingBox: 36 36 7459 656
%%PageOrientation: Portrait
0 0 1 beginpage
gsave
36 36 7423 620 boxprim clip newpath
1 1 set_scale 0 rotate 40 40 translate
% Afghanistan
gsave
1 setlinewidth
0 0 0 nodecolor
6086.9 378 53.89 18 ellipse_path stroke
0 0 0 nodecolor
14 /Times-Roman set_font
6053.4 374.3 moveto 67 (Afghanistan) alignedtext
grestore
% China
gsave
1 setlinewidth
0 0 0 nodecolor
6485.9 306 31.7 18 ellipse_path stroke
0 0 0 nodecolor
14 /Times-Roman set_font
6469.4 302.3 moveto 33 (China) alignedtext
grestore
% Afghanistan--China
gsave
1 setlinewidth
0 0 0 edgecolor
newpath 6133.45 368.83 moveto
6216.19 354.32 6386.65 324.41 6455.78 312.28 curveto
stroke
grestore
% Iran
gsave
1 setlinewidth
0 0 0 nodecolor
3768.9 306 27 18 ellipse_path stroke
0 0 0 nodecolor
14 /Times-Roman set_font
3757.9 302.3 moveto 22 (Iran) alignedtext
grestore
% Afghanistan--Iran
gsave
1 setlinewidth
0 0 0 edgecolor
newpath 6048.89 365.13 moveto
6040.72 363.04 6032.08 361.16 6023.9 360 curveto
5569.02 295.67 4415.63 348.7 3956.9 324 curveto
3899.14 320.89 3831.66 313.99 3795.32 310 curveto
stroke
grestore
% Pakistan
gsave
1 setlinewidth
0 0 0 nodecolor
6523.9 162 40.09 18 ellipse_path stroke
0 0 0 nodecolor
14 /Times-Roman set_font
6500.9 158.3 moveto 46 (Pakistan) alignedtext
grestore
% Afghanistan--Pakistan
gsave
1 setlinewidth
0 0 0 edgecolor
newpath 6115.91 362.79 moveto
6196.26 323.45 6420.82 213.48 6497.69 175.83 curveto
stroke
grestore
% Tajikistan
gsave
1 setlinewidth
0 0 0 nodecolor
6324.9 90 46.29 18 ellipse_path stroke
0 0 0 nodecolor
14 /Times-Roman set_font
6297.4 86.3 moveto 55 (Tajikistan) alignedtext
grestore
% Afghanistan--Tajikistan
gsave
1 setlinewidth
0 0 0 edgecolor
newpath 6081.96 359.99 moveto
6068.49 312.02 6033.88 176.98 6060.9 144 curveto
6088 110.91 6211.26 98.05 6279.35 93.4 curveto
stroke
grestore
% Turkmenistan
gsave
1 setlinewidth
0 0 0 nodecolor
5930.9 162 59.59 18 ellipse_path stroke
0 0 0 nodecolor
14 /Times-Roman set_font
5892.9 158.3 moveto 76 (Turkmenistan) alignedtext
grestore
% Afghanistan--Turkmenistan
gsave
1 setlinewidth
0 0 0 edgecolor
newpath 6079.3 360.08 moveto
6069.5 340.08 6050.59 307.1 6024.9 288 curveto
5983.61 257.31 5945.09 293.65 5914.9 252 curveto
5899.51 230.77 5911 199.37 5920.86 180.09 curveto
stroke
grestore
% Uzbekistan
gsave
1 setlinewidth
0 0 0 nodecolor
6249.9 18 50.09 18 ellipse_path stroke
0 0 0 nodecolor
14 /Times-Roman set_font
6219.4 14.3 moveto 61 (Uzbekistan) alignedtext
grestore
% Afghanistan--Uzbekistan
gsave
1 setlinewidth
0 0 0 edgecolor
newpath 6067.09 361.11 moveto
6054.65 350.88 6038.44 337.08 6024.9 324 curveto
6009.28 308.92 6009.7 300.41 5991.9 288 curveto
5957.22 263.84 5935.79 279.72 5903.9 252 curveto
5865.02 218.21 5832.75 186.46 5861.9 144 curveto
5901.55 86.24 6111.97 43.05 6205.28 26.45 curveto
stroke
grestore
% China--Pakistan
gsave
1 setlinewidth
0 0 0 edgecolor
newpath 6507.71 292.83 moveto
6521.77 283.64 6538.86 269.62 6546.9 252 curveto
6557.82 228.04 6545.11 197.99 6534.69 179.66 curveto
stroke
grestore
% China--Tajikistan
gsave
1 setlinewidth
0 0 0 edgecolor
newpath 6464.05 292.79 moveto
6431.9 273.5 6372.75 232.69 6345.9 180 curveto
6334.07 156.8 6328.78 126.8 6326.5 108.23 curveto
stroke
grestore
% Russia
gsave
1 setlinewidth
0 0 0 nodecolor
4252.9 162 34.39 18 ellipse_path stroke
0 0 0 nodecolor
14 /Times-Roman set_font
4234.4 158.3 moveto 37 (Russia) alignedtext
grestore
% China--Russia
gsave
1 setlinewidth
0 0 0 edgecolor
newpath 6454.21 303.04 moveto
6367.58 297.48 6119.55 280.14 5914.9 252 curveto
5826.72 239.88 5806.38 225.63 5717.9 216 curveto
5427.56 184.39 4480.39 166.86 4287.41 163.57 curveto
stroke
grestore
% India
gsave
1 setlinewidth
0 0 0 nodecolor
6786.9 234 28.7 18 ellipse_path stroke
0 0 0 nodecolor
14 /Times-Roman set_font
6772.9 230.3 moveto 28 (India) alignedtext
grestore
% China--India
gsave
1 setlinewidth
0 0 0 edgecolor
newpath 6510.93 294.79 moveto
6517.66 292.31 6524.99 289.85 6531.9 288 curveto
6624.23 263.33 6651.85 277.71 6743.9 252 curveto
6750.54 250.14 6757.58 247.62 6763.99 245.08 curveto
stroke
grestore
% Laos
gsave
1 setlinewidth
0 0 0 nodecolor
6861.9 234 27.9 18 ellipse_path stroke
0 0 0 nodecolor
14 /Times-Roman set_font
6848.4 230.3 moveto 27 (Laos) alignedtext
grestore
% China--Laos
gsave
1 setlinewidth
0 0 0 edgecolor
newpath 6516.56 300.7 moveto
6594.4 289.71 6795.56 260.85 6824.9 252 curveto
6830.17 250.41 6835.67 248.21 6840.76 245.92 curveto
stroke
grestore
% Vietnam
gsave
1 setlinewidth
0 0 0 nodecolor
6729.9 162 41.69 18 ellipse_path stroke
0 0 0 nodecolor
14 /Times-Roman set_font
6705.9 158.3 moveto 48 (Vietnam) alignedtext
grestore
% China--Vietnam
gsave
1 setlinewidth
0 0 0 edgecolor
newpath 6511.45 294.75 moveto
6518.04 292.33 6525.18 289.9 6531.9 288 curveto
6609.97 265.87 6653.18 309.04 6710.9 252 curveto
6730 233.12 6732.11 200.07 6731.37 179.99 curveto
stroke
grestore
% Hong Kong
gsave
1 setlinewidth
0 0 0 nodecolor
6485.9 234 51.99 18 ellipse_path stroke
0 0 0 nodecolor
14 /Times-Roman set_font
6453.9 230.3 moveto 64 (Hong Kong) alignedtext
grestore
% China--Hong Kong
gsave
1 setlinewidth
0 0 0 edgecolor
newpath 6485.9 287.7 moveto
6485.9 276.85 6485.9 262.92 6485.9 252.1 curveto
stroke
grestore
% Kazakhstan
gsave
1 setlinewidth
0 0 0 nodecolor
6249.9 234 51.99 18 ellipse_path stroke
0 0 0 nodecolor
14 /Times-Roman set_font
6217.9 230.3 moveto 64 (Kazakhstan) alignedtext
grestore
% China--Kazakhstan
gsave
1 setlinewidth
0 0 0 edgecolor
newpath 6458.36 296.83 moveto
6416.29 284.35 6335.88 260.5 6288.16 246.35 curveto
stroke
grestore
% Kyrgyzstan
gsave
1 setlinewidth
0 0 0 nodecolor
6405.9 162 51.19 18 ellipse_path stroke
0 0 0 nodecolor
14 /Times-Roman set_font
6374.4 158.3 moveto 63 (Kyrgyzstan) alignedtext
grestore
% China--Kyrgyzstan
gsave
1 setlinewidth
0 0 0 edgecolor
newpath 6465.23 292.23 moveto
6451.69 282.77 6434.73 268.68 6424.9 252 curveto
6411.65 229.55 6407.59 199.06 6406.37 180.23 curveto
stroke
grestore
% Macau
gsave
1 setlinewidth
0 0 0 nodecolor
6666.9 234 35.19 18 ellipse_path stroke
0 0 0 nodecolor
14 /Times-Roman set_font
6647.9 230.3 moveto 38 (Macau) alignedtext
grestore
% China--Macau
gsave
1 setlinewidth
0 0 0 edgecolor
newpath 6511.44 295.12 moveto
6545.36 282 6604.98 258.94 6639.7 245.52 curveto
stroke
grestore
% Mongolia
gsave
1 setlinewidth
0 0 0 nodecolor
5968.9 234 45.49 18 ellipse_path stroke
0 0 0 nodecolor
14 /Times-Roman set_font
5941.9 230.3 moveto 54 (Mongolia) alignedtext
grestore
% China--Mongolia
gsave
1 setlinewidth
0 0 0 edgecolor
newpath 6454.88 301.76 moveto
6384.59 294.29 6207.86 274.72 6060.9 252 curveto
6043.72 249.34 6024.83 245.94 6008.66 242.87 curveto
stroke
grestore
% Nepal
gsave
1 setlinewidth
0 0 0 nodecolor
6622.9 162 31.7 18 ellipse_path stroke
0 0 0 nodecolor
14 /Times-Roman set_font
6606.4 158.3 moveto 33 (Nepal) alignedtext
grestore
% China--Nepal
gsave
1 setlinewidth
0 0 0 edgecolor
newpath 6508.1 293.07 moveto
6524.71 283.44 6547.32 268.77 6563.9 252 curveto
6585.79 229.85 6604.36 198.44 6614.54 179.47 curveto
stroke
grestore
% North Korea
gsave
1 setlinewidth
0 0 0 nodecolor
6124.9 234 55.49 18 ellipse_path stroke
0 0 0 nodecolor
14 /Times-Roman set_font
6090.4 230.3 moveto 69 (North Korea) alignedtext
grestore
% China--North Korea
gsave
1 setlinewidth
0 0 0 edgecolor
newpath 6455.37 300.41 moveto
6401.37 292.1 6285.54 273.42 6188.9 252 curveto
6181.26 250.31 6173.17 248.32 6165.4 246.3 curveto
stroke
grestore
% Iran--Pakistan
gsave
1 setlinewidth
0 0 0 edgecolor
newpath 3794.36 299.67 moveto
3832.89 291.28 3908.1 273.72 3969.9 252 curveto
4007.06 238.94 4012.42 224.47 4050.9 216 curveto
4312.99 158.34 6200.55 220.11 6465.9 180 curveto
6474.82 178.65 6484.29 176.29 6492.94 173.75 curveto
stroke
grestore
% Iran--Turkmenistan
gsave
1 setlinewidth
0 0 0 edgecolor
newpath 3790.22 294.7 moveto
3832.47 274.92 3930.31 232.12 4017.9 216 curveto
4207.2 181.15 5557.72 191.01 5749.9 180 curveto
5792.28 177.57 5840.09 173 5875.92 169.21 curveto
stroke
grestore
% Turkey
gsave
1 setlinewidth
0 0 0 nodecolor
3317.9 18 36.29 18 ellipse_path stroke
0 0 0 nodecolor
14 /Times-Roman set_font
3297.9 14.3 moveto 40 (Turkey) alignedtext
grestore
% Iran--Turkey
gsave
1 setlinewidth
0 0 0 edgecolor
newpath 3741.79 304.5 moveto
3669.93 302.6 3476.96 293.66 3431.9 252 curveto
3371.5 196.17 3434.11 140.71 3388.9 72 curveto
3377.4 54.52 3358.08 40.66 3342.49 31.5 curveto
stroke
grestore
% Iraq
gsave
1 setlinewidth
0 0 0 nodecolor
3467.9 234 27 18 ellipse_path stroke
0 0 0 nodecolor
14 /Times-Roman set_font
3456.9 230.3 moveto 22 (Iraq) alignedtext
grestore
% Iran--Iraq
gsave
1 setlinewidth
0 0 0 edgecolor
newpath 3742.39 301.88 moveto
3694.06 295.7 3588.76 280.06 3503.9 252 curveto
3498.78 250.31 3493.43 248.07 3488.48 245.77 curveto
stroke
grestore
% Tajikistan--Uzbekistan
gsave
1 setlinewidth
0 0 0 edgecolor
newpath 6307.88 73.12 moveto
6295.69 61.74 6279.34 46.48 6267.11 35.06 curveto
stroke
grestore
% Turkmenistan--Uzbekistan
gsave
1 setlinewidth
0 0 0 edgecolor
newpath 5962.94 146.73 moveto
6024.72 119.24 6159.49 59.24 6219.74 32.42 curveto
stroke
grestore
% Akrotiri
gsave
1 setlinewidth
0 0 0 nodecolor
6819.9 594 38.99 18 ellipse_path stroke
0 0 0 nodecolor
14 /Times-Roman set_font
6797.9 590.3 moveto 44 (Akrotiri) alignedtext
grestore
% Cyprus
gsave
1 setlinewidth
0 0 0 nodecolor
6819.9 522 36.29 18 ellipse_path stroke
0 0 0 nodecolor
14 /Times-Roman set_font
6799.9 518.3 moveto 40 (Cyprus) alignedtext
grestore
% Akrotiri--Cyprus
gsave
1 setlinewidth
0 0 0 edgecolor
newpath 6819.9 575.7 moveto
6819.9 564.85 6819.9 550.92 6819.9 540.1 curveto
stroke
grestore
% Dhekelia
gsave
1 setlinewidth
0 0 0 nodecolor
6819.9 450 42.49 18 ellipse_path stroke
0 0 0 nodecolor
14 /Times-Roman set_font
6795.4 446.3 moveto 49 (Dhekelia) alignedtext
grestore
% Cyprus--Dhekelia
gsave
1 setlinewidth
0 0 0 edgecolor
newpath 6819.9 503.7 moveto
6819.9 492.85 6819.9 478.92 6819.9 468.1 curveto
stroke
grestore
% Albania
gsave
1 setlinewidth
0 0 0 nodecolor
2871.9 306 38.19 18 ellipse_path stroke
0 0 0 nodecolor
14 /Times-Roman set_font
2850.4 302.3 moveto 43 (Albania) alignedtext
grestore
% Greece
gsave
1 setlinewidth
0 0 0 nodecolor
2755.9 234 36 18 ellipse_path stroke
0 0 0 nodecolor
14 /Times-Roman set_font
2736.4 230.3 moveto 39 (Greece) alignedtext
grestore
% Albania--Greece
gsave
1 setlinewidth
0 0 0 edgecolor
newpath 2849.25 291.34 moveto
2828.68 278.92 2798.51 260.72 2778.09 248.39 curveto
stroke
grestore
% Kosovo
gsave
1 setlinewidth
0 0 0 nodecolor
2923.9 234 38.19 18 ellipse_path stroke
0 0 0 nodecolor
14 /Times-Roman set_font
2902.4 230.3 moveto 43 (Kosovo) alignedtext
grestore
% Albania--Kosovo
gsave
1 setlinewidth
0 0 0 edgecolor
newpath 2883.96 288.76 moveto
2892.36 277.46 2903.51 262.44 2911.9 251.15 curveto
stroke
grestore
% Macedonia
gsave
1 setlinewidth
0 0 0 nodecolor
2828.9 162 50.09 18 ellipse_path stroke
0 0 0 nodecolor
14 /Times-Roman set_font
2798.4 158.3 moveto 61 (Macedonia) alignedtext
grestore
% Albania--Macedonia
gsave
1 setlinewidth
0 0 0 edgecolor
newpath 2861.38 288.43 moveto
2855.39 278.28 2848.23 264.81 2843.9 252 curveto
2835.7 227.81 2831.86 198.34 2830.15 180.12 curveto
stroke
grestore
% Montenegro
gsave
1 setlinewidth
0 0 0 nodecolor
2988.9 162 53.89 18 ellipse_path stroke
0 0 0 nodecolor
14 /Times-Roman set_font
2955.4 158.3 moveto 67 (Montenegro) alignedtext
grestore
% Albania--Montenegro
gsave
1 setlinewidth
0 0 0 edgecolor
newpath 2903.95 295.88 moveto
2926.13 287.9 2954.49 274.06 2970.9 252 curveto
2986.6 230.87 2989.48 199.44 2989.58 180.13 curveto
stroke
grestore
% Greece--Macedonia
gsave
1 setlinewidth
0 0 0 edgecolor
newpath 2771.73 217.81 moveto
2783.64 206.39 2799.93 190.78 2812.07 179.13 curveto
stroke
grestore
% Greece--Turkey
gsave
1 setlinewidth
0 0 0 edgecolor
newpath 2721.64 228.6 moveto
2684.6 222.54 2625.06 208.9 2581.9 180 curveto
2536.45 149.57 2485.53 111.94 2522.9 72 curveto
2575.23 16.06 3132.16 17.25 3281.32 18.58 curveto
stroke
grestore
% Kosovo--Macedonia
gsave
1 setlinewidth
0 0 0 edgecolor
newpath 2904.21 218.5 moveto
2888.34 206.8 2866.08 190.4 2849.87 178.46 curveto
stroke
grestore
% Kosovo--Montenegro
gsave
1 setlinewidth
0 0 0 edgecolor
newpath 2938.64 217.12 moveto
2949.13 205.82 2963.18 190.7 2973.75 179.31 curveto
stroke
grestore
% Serbia
gsave
1 setlinewidth
0 0 0 nodecolor
3096.9 90 33.29 18 ellipse_path stroke
0 0 0 nodecolor
14 /Times-Roman set_font
3079.4 86.3 moveto 35 (Serbia) alignedtext
grestore
% Kosovo--Serbia
gsave
1 setlinewidth
0 0 0 edgecolor
newpath 2918.9 216.03 moveto
2914.28 196.58 2910.26 164.73 2925.9 144 curveto
2957.91 101.57 3023.45 92.18 3063.45 90.62 curveto
stroke
grestore
% Macedonia--Serbia
gsave
1 setlinewidth
0 0 0 edgecolor
newpath 2867.81 150.63 moveto
2876.09 148.43 2884.78 146.13 2892.9 144 curveto
2955.01 127.68 3027.83 108.83 3067.49 98.59 curveto
stroke
grestore
% Montenegro--Serbia
gsave
1 setlinewidth
0 0 0 edgecolor
newpath 3012.6 145.64 moveto
3031.72 133.24 3058.34 115.99 3076.52 104.21 curveto
stroke
grestore
% Algeria
gsave
1 setlinewidth
0 0 0 nodecolor
477.9 378 37.09 18 ellipse_path stroke
0 0 0 nodecolor
14 /Times-Roman set_font
457.4 374.3 moveto 41 (Algeria) alignedtext
grestore
% Libya
gsave
1 setlinewidth
0 0 0 nodecolor
940.9 306 31.4 18 ellipse_path stroke
0 0 0 nodecolor
14 /Times-Roman set_font
924.9 302.3 moveto 32 (Libya) alignedtext
grestore
% Algeria--Libya
gsave
1 setlinewidth
0 0 0 edgecolor
newpath 509.91 368.61 moveto
522.06 365.62 536.06 362.4 548.9 360 curveto
682.56 335.03 843.96 316.98 910.23 310.08 curveto
stroke
grestore
% Mali
gsave
1 setlinewidth
0 0 0 nodecolor
341.9 306 27.9 18 ellipse_path stroke
0 0 0 nodecolor
14 /Times-Roman set_font
328.4 302.3 moveto 27 (Mali) alignedtext
grestore
% Algeria--Mali
gsave
1 setlinewidth
0 0 0 edgecolor
newpath 453.27 364.32 moveto
427.55 351.09 387.62 330.54 363.21 317.97 curveto
stroke
grestore
% Mauritania
gsave
1 setlinewidth
0 0 0 nodecolor
397.9 234 50.09 18 ellipse_path stroke
0 0 0 nodecolor
14 /Times-Roman set_font
367.4 230.3 moveto 61 (Mauritania) alignedtext
grestore
% Algeria--Mauritania
gsave
1 setlinewidth
0 0 0 edgecolor
newpath 457.85 362.64 moveto
445.78 353 431.02 339.29 421.9 324 curveto
408.36 301.33 402.3 270.91 399.71 252.15 curveto
stroke
grestore
% Morocco
gsave
1 setlinewidth
0 0 0 nodecolor
582.9 306 42.79 18 ellipse_path stroke
0 0 0 nodecolor
14 /Times-Roman set_font
557.9 302.3 moveto 50 (Morocco) alignedtext
grestore
% Algeria--Morocco
gsave
1 setlinewidth
0 0 0 edgecolor
newpath 498.89 363 moveto
516.85 351.03 542.6 333.86 560.85 321.7 curveto
stroke
grestore
% Niger
gsave
1 setlinewidth
0 0 0 nodecolor
746.9 234 30.59 18 ellipse_path stroke
0 0 0 nodecolor
14 /Times-Roman set_font
731.4 230.3 moveto 31 (Niger) alignedtext
grestore
% Algeria--Niger
gsave
1 setlinewidth
0 0 0 edgecolor
newpath 476.66 359.67 moveto
476.24 339.58 478.86 306.82 497.9 288 curveto
528.54 257.7 656.97 242.81 716.44 237.43 curveto
stroke
grestore
% Tunisia
gsave
1 setlinewidth
0 0 0 nodecolor
921.9 234 37.09 18 ellipse_path stroke
0 0 0 nodecolor
14 /Times-Roman set_font
901.4 230.3 moveto 41 (Tunisia) alignedtext
grestore
% Algeria--Tunisia
gsave
1 setlinewidth
0 0 0 edgecolor
newpath 482.94 360.05 moveto
490.04 339.37 505.09 305.06 530.9 288 curveto
534.61 285.54 791.02 252.01 886.55 239.59 curveto
stroke
grestore
% Western Sahara
gsave
1 setlinewidth
0 0 0 nodecolor
475.9 162 66.89 18 ellipse_path stroke
0 0 0 nodecolor
14 /Times-Roman set_font
432.4 158.3 moveto 87 (Western Sahara) alignedtext
grestore
% Algeria--Western Sahara
gsave
1 setlinewidth
0 0 0 edgecolor
newpath 477.52 359.82 moveto
477.3 349.44 477.05 335.96 476.9 324 curveto
476.24 271.73 476.01 209.92 475.93 180.39 curveto
stroke
grestore
% Libya--Niger
gsave
1 setlinewidth
0 0 0 edgecolor
newpath 915.7 295.38 moveto
909.25 292.95 902.32 290.36 895.9 288 curveto
852.72 272.17 802.25 254.36 772.52 243.95 curveto
stroke
grestore
% Libya--Tunisia
gsave
1 setlinewidth
0 0 0 edgecolor
newpath 936.3 288.05 moveto
933.35 277.21 929.54 263.18 926.58 252.28 curveto
stroke
grestore
% Sudan
gsave
1 setlinewidth
0 0 0 nodecolor
1351.9 234 32.49 18 ellipse_path stroke
0 0 0 nodecolor
14 /Times-Roman set_font
1334.9 230.3 moveto 34 (Sudan) alignedtext
grestore
% Libya--Sudan
gsave
1 setlinewidth
0 0 0 edgecolor
newpath 969.65 298.8 moveto
985.6 295.44 1005.81 291.31 1023.9 288 curveto
1132.55 268.1 1262.19 248.32 1320.62 239.61 curveto
stroke
grestore
% Mali--Mauritania
gsave
1 setlinewidth
0 0 0 edgecolor
newpath 354.32 289.46 moveto
363.35 278.19 375.53 262.96 384.72 251.47 curveto
stroke
grestore
% Mali--Niger
gsave
1 setlinewidth
0 0 0 edgecolor
newpath 368.47 300.41 moveto
441.15 287.85 642.81 252.99 718.07 239.98 curveto
stroke
grestore
% Senegal
gsave
1 setlinewidth
0 0 0 nodecolor
300.9 162 38.19 18 ellipse_path stroke
0 0 0 nodecolor
14 /Times-Roman set_font
279.4 158.3 moveto 43 (Senegal) alignedtext
grestore
% Mali--Senegal
gsave
1 setlinewidth
0 0 0 edgecolor
newpath 337.03 288.15 moveto
329.18 260.97 313.81 207.72 305.88 180.27 curveto
stroke
grestore
% Mauritania--Western Sahara
gsave
1 setlinewidth
0 0 0 edgecolor
newpath 415.59 217.12 moveto
428.09 205.9 444.79 190.91 457.45 179.55 curveto
stroke
grestore
% Mauritania--Senegal
gsave
1 setlinewidth
0 0 0 edgecolor
newpath 376.37 217.46 moveto
359.85 205.54 337.2 189.2 321.04 177.54 curveto
stroke
grestore
% Morocco--Western Sahara
gsave
1 setlinewidth
0 0 0 edgecolor
newpath 570.62 288.71 moveto
550.2 261.61 509.45 207.53 488.69 179.98 curveto
stroke
grestore
% Spain
gsave
1 setlinewidth
0 0 0 nodecolor
5001.9 234 30.59 18 ellipse_path stroke
0 0 0 nodecolor
14 /Times-Roman set_font
4986.4 230.3 moveto 31 (Spain) alignedtext
grestore
% Morocco--Spain
gsave
1 setlinewidth
0 0 0 edgecolor
newpath 613.58 293.25 moveto
620.49 291.09 627.86 289.15 634.9 288 curveto
872.19 249.18 4727.71 302.05 4962.9 252 curveto
4968.53 250.8 4974.35 248.75 4979.72 246.49 curveto
stroke
grestore
% Nigeria
gsave
1 setlinewidth
0 0 0 nodecolor
824.9 162 37.09 18 ellipse_path stroke
0 0 0 nodecolor
14 /Times-Roman set_font
804.4 158.3 moveto 41 (Nigeria) alignedtext
grestore
% Niger--Nigeria
gsave
1 setlinewidth
0 0 0 edgecolor
newpath 763.06 218.5 moveto
776.18 206.72 794.62 190.17 807.94 178.21 curveto
stroke
grestore
% Andorra
gsave
1 setlinewidth
0 0 0 nodecolor
5043.9 450 40.09 18 ellipse_path stroke
0 0 0 nodecolor
14 /Times-Roman set_font
5020.9 446.3 moveto 46 (Andorra) alignedtext
grestore
% France
gsave
1 setlinewidth
0 0 0 nodecolor
4938.9 378 34.39 18 ellipse_path stroke
0 0 0 nodecolor
14 /Times-Roman set_font
4920.4 374.3 moveto 37 (France) alignedtext
grestore
% Andorra--France
gsave
1 setlinewidth
0 0 0 edgecolor
newpath 5022.39 434.67 moveto
5003.91 422.35 4977.45 404.7 4959.3 392.6 curveto
stroke
grestore
% Andorra--Spain
gsave
1 setlinewidth
0 0 0 edgecolor
newpath 5054.53 432.32 moveto
5067.35 413.14 5090.39 381.55 5115.9 360 curveto
5140.82 338.94 5163.42 352.17 5179.9 324 curveto
5187.97 310.19 5189.46 300.83 5179.9 288 curveto
5162.07 264.09 5077.05 247.06 5031.26 239.45 curveto
stroke
grestore
% France--Spain
gsave
1 setlinewidth
0 0 0 edgecolor
newpath 4970.73 370.4 moveto
4995.44 363.43 5028.06 349.74 5043.9 324 curveto
5059.21 299.12 5035.32 267.77 5017.78 249.69 curveto
stroke
grestore
% Germany
gsave
1 setlinewidth
0 0 0 nodecolor
4637.9 306 44.39 18 ellipse_path stroke
0 0 0 nodecolor
14 /Times-Roman set_font
4611.9 302.3 moveto 52 (Germany) alignedtext
grestore
% France--Germany
gsave
1 setlinewidth
0 0 0 edgecolor
newpath 4908.1 369.84 moveto
4852.51 356.91 4735.61 329.72 4675.44 315.73 curveto
stroke
grestore
% Italy
gsave
1 setlinewidth
0 0 0 nodecolor
4393.9 306 27 18 ellipse_path stroke
0 0 0 nodecolor
14 /Times-Roman set_font
4381.4 302.3 moveto 25 (Italy) alignedtext
grestore
% France--Italy
gsave
1 setlinewidth
0 0 0 edgecolor
newpath 4905.62 372.73 moveto
4805.78 359.9 4510.12 321.93 4420.16 310.37 curveto
stroke
grestore
% Switzerland
gsave
1 setlinewidth
0 0 0 nodecolor
4644.9 234 52.79 18 ellipse_path stroke
0 0 0 nodecolor
14 /Times-Roman set_font
4612.4 230.3 moveto 65 (Switzerland) alignedtext
grestore
% France--Switzerland
gsave
1 setlinewidth
0 0 0 edgecolor
newpath 4914.33 365.14 moveto
4860.51 339.14 4732.35 277.24 4674.33 249.22 curveto
stroke
grestore
% Luxembourg
gsave
1 setlinewidth
0 0 0 nodecolor
4896.9 234 56.59 18 ellipse_path stroke
0 0 0 nodecolor
14 /Times-Roman set_font
4861.4 230.3 moveto 71 (Luxembourg) alignedtext
grestore
% France--Luxembourg
gsave
1 setlinewidth
0 0 0 edgecolor
newpath 4908.31 369.16 moveto
4885.86 361.62 4856.93 347.77 4842.9 324 curveto
4834.76 310.22 4836.7 302.75 4842.9 288 curveto
4849.25 272.86 4862.27 259.87 4873.94 250.54 curveto
stroke
grestore
% Suriname
gsave
1 setlinewidth
0 0 0 nodecolor
5347.9 306 44.69 18 ellipse_path stroke
0 0 0 nodecolor
14 /Times-Roman set_font
5321.4 302.3 moveto 53 (Suriname) alignedtext
grestore
% France--Suriname
gsave
1 setlinewidth
0 0 0 edgecolor
newpath 4971.33 371.45 moveto
5045.3 358.79 5226.32 327.81 5307.43 313.93 curveto
stroke
grestore
% Monaco
gsave
1 setlinewidth
0 0 0 nodecolor
5130.9 306 40.09 18 ellipse_path stroke
0 0 0 nodecolor
14 /Times-Roman set_font
5107.9 302.3 moveto 46 (Monaco) alignedtext
grestore
% France--Monaco
gsave
1 setlinewidth
0 0 0 edgecolor
newpath 4966.4 366.97 moveto
5001.97 354 5063.71 331.5 5100.59 318.05 curveto
stroke
grestore
% Angola
gsave
1 setlinewidth
0 0 0 nodecolor
1964.9 450 36.29 18 ellipse_path stroke
0 0 0 nodecolor
14 /Times-Roman set_font
1944.9 446.3 moveto 40 (Angola) alignedtext
grestore
% Democratic Republic of the Congo
gsave
1 setlinewidth
0 0 0 nodecolor
1669.9 378 135.38 18 ellipse_path stroke
0 0 0 nodecolor
14 /Times-Roman set_font
1573.9 374.3 moveto 192 (Democratic Republic of the Congo) alignedtext
grestore
% Angola--Democratic Republic of the Congo
gsave
1 setlinewidth
0 0 0 edgecolor
newpath 1932.76 441.38 moveto
1884.98 430.04 1794.24 408.51 1732.91 393.95 curveto
stroke
grestore
% Namibia
gsave
1 setlinewidth
0 0 0 nodecolor
2187.9 306 41.69 18 ellipse_path stroke
0 0 0 nodecolor
14 /Times-Roman set_font
2163.9 302.3 moveto 48 (Namibia) alignedtext
grestore
% Angola--Namibia
gsave
1 setlinewidth
0 0 0 edgecolor
newpath 1986.28 435.38 moveto
2028.57 408.45 2122.55 348.61 2165.59 321.2 curveto
stroke
grestore
% Republic of the Congo
gsave
1 setlinewidth
0 0 0 nodecolor
1156.9 306 90.98 18 ellipse_path stroke
0 0 0 nodecolor
14 /Times-Roman set_font
1094.9 302.3 moveto 124 (Republic of the Congo) alignedtext
grestore
% Angola--Republic of the Congo
gsave
1 setlinewidth
0 0 0 edgecolor
newpath 1932.74 441.41 moveto
1917.42 438.05 1898.8 434.34 1881.9 432 curveto
1664.71 401.94 1603.91 443.62 1389.9 396 curveto
1315.71 379.49 1233.74 343.79 1189.52 322.97 curveto
stroke
grestore
% Zambia
gsave
1 setlinewidth
0 0 0 nodecolor
1984.9 162 38.19 18 ellipse_path stroke
0 0 0 nodecolor
14 /Times-Roman set_font
1963.4 158.3 moveto 43 (Zambia) alignedtext
grestore
% Angola--Zambia
gsave
1 setlinewidth
0 0 0 edgecolor
newpath 1972.57 432.22 moveto
1976.83 421.99 1981.69 408.51 1983.9 396 curveto
1997.92 316.32 1990.64 218.93 1986.79 180.13 curveto
stroke
grestore
% Democratic Republic of the Congo--Republic of the Congo
gsave
1 setlinewidth
0 0 0 edgecolor
newpath 1579.07 364.61 moveto
1479.35 351 1321.25 329.43 1229.45 316.9 curveto
stroke
grestore
% Democratic Republic of the Congo--Zambia
gsave
1 setlinewidth
0 0 0 edgecolor
newpath 1667.38 360 moveto
1665.45 341.09 1664.98 310.28 1677.9 288 curveto
1705.9 239.67 1730.18 239.39 1780.9 216 curveto
1836.72 190.25 1907.13 175.47 1948.94 168.36 curveto
stroke
grestore
% Rwanda
gsave
1 setlinewidth
0 0 0 nodecolor
1726.9 306 39.79 18 ellipse_path stroke
0 0 0 nodecolor
14 /Times-Roman set_font
1704.4 302.3 moveto 45 (Rwanda) alignedtext
grestore
% Democratic Republic of the Congo--Rwanda
gsave
1 setlinewidth
0 0 0 edgecolor
newpath 1683.69 360.05 moveto
1692.79 348.89 1704.63 334.34 1713.62 323.31 curveto
stroke
grestore
% Tanzania
gsave
1 setlinewidth
0 0 0 nodecolor
1832.9 234 42.79 18 ellipse_path stroke
0 0 0 nodecolor
14 /Times-Roman set_font
1807.9 230.3 moveto 50 (Tanzania) alignedtext
grestore
% Democratic Republic of the Congo--Tanzania
gsave
1 setlinewidth
0 0 0 edgecolor
newpath 1714.67 360.99 moveto
1734.92 352.23 1758.22 339.89 1775.9 324 curveto
1798.82 303.39 1816.2 271.5 1825.44 252.01 curveto
stroke
grestore
% Democratic Republic of the Congo--Sudan
gsave
1 setlinewidth
0 0 0 edgecolor
newpath 1573.13 365.34 moveto
1510.34 356.28 1435.45 342.2 1408.9 324 curveto
1382.86 306.16 1366.08 272.12 1357.87 251.7 curveto
stroke
grestore
% Uganda
gsave
1 setlinewidth
0 0 0 nodecolor
1589.9 162 38.19 18 ellipse_path stroke
0 0 0 nodecolor
14 /Times-Roman set_font
1568.4 158.3 moveto 43 (Uganda) alignedtext
grestore
% Democratic Republic of the Congo--Uganda
gsave
1 setlinewidth
0 0 0 edgecolor
newpath 1661.3 360.03 moveto
1656.23 349.73 1649.86 336.26 1644.9 324 curveto
1624.04 272.53 1604.15 209.83 1595.06 180.15 curveto
stroke
grestore
% Namibia--Zambia
gsave
1 setlinewidth
0 0 0 edgecolor
newpath 2166.94 290.34 moveto
2127.83 262.99 2044.22 204.5 2005.44 177.37 curveto
stroke
grestore
% South Africa
gsave
1 setlinewidth
0 0 0 nodecolor
2227.9 234 55.79 18 ellipse_path stroke
0 0 0 nodecolor
14 /Times-Roman set_font
2192.9 230.3 moveto 70 (South Africa) alignedtext
grestore
% Namibia--South Africa
gsave
1 setlinewidth
0 0 0 edgecolor
newpath 2197.37 288.41 moveto
2203.66 277.41 2211.88 263.03 2218.21 251.96 curveto
stroke
grestore
% Zimbabwe
gsave
1 setlinewidth
0 0 0 nodecolor
2147.9 90 48.99 18 ellipse_path stroke
0 0 0 nodecolor
14 /Times-Roman set_font
2118.4 86.3 moveto 59 (Zimbabwe) alignedtext
grestore
% Zambia--Zimbabwe
gsave
1 setlinewidth
0 0 0 edgecolor
newpath 2012.18 149.28 moveto
2041.27 136.79 2087.23 117.05 2117.47 104.07 curveto
stroke
grestore
% Argentina
gsave
1 setlinewidth
0 0 0 nodecolor
5368.9 594 46.29 18 ellipse_path stroke
0 0 0 nodecolor
14 /Times-Roman set_font
5341.4 590.3 moveto 55 (Argentina) alignedtext
grestore
% Bolivia
gsave
1 setlinewidth
0 0 0 nodecolor
5432.9 522 36.29 18 ellipse_path stroke
0 0 0 nodecolor
14 /Times-Roman set_font
5412.9 518.3 moveto 40 (Bolivia) alignedtext
grestore
% Argentina--Bolivia
gsave
1 setlinewidth
0 0 0 edgecolor
newpath 5383.74 576.76 moveto
5394.23 565.29 5408.2 550.01 5418.57 538.67 curveto
stroke
grestore
% Brazil
gsave
1 setlinewidth
0 0 0 nodecolor
5378.9 450 32.49 18 ellipse_path stroke
0 0 0 nodecolor
14 /Times-Roman set_font
5361.9 446.3 moveto 34 (Brazil) alignedtext
grestore
% Argentina--Brazil
gsave
1 setlinewidth
0 0 0 edgecolor
newpath 5370.1 575.87 moveto
5372.02 548.58 5375.76 495.52 5377.68 468.19 curveto
stroke
grestore
% Chile
gsave
1 setlinewidth
0 0 0 nodecolor
5298.9 450 29.8 18 ellipse_path stroke
0 0 0 nodecolor
14 /Times-Roman set_font
5283.9 446.3 moveto 30 (Chile) alignedtext
grestore
% Argentina--Chile
gsave
1 setlinewidth
0 0 0 edgecolor
newpath 5360.59 576.15 moveto
5347.05 548.68 5320.37 494.56 5306.97 467.39 curveto
stroke
grestore
% Paraguay
gsave
1 setlinewidth
0 0 0 nodecolor
5626.9 378 43.59 18 ellipse_path stroke
0 0 0 nodecolor
14 /Times-Roman set_font
5601.4 374.3 moveto 51 (Paraguay) alignedtext
grestore
% Argentina--Paraguay
gsave
1 setlinewidth
0 0 0 edgecolor
newpath 5401.18 581.03 moveto
5423.86 571.76 5454.24 557.55 5477.9 540 curveto
5536.92 496.2 5591.64 426.94 5614.99 395.5 curveto
stroke
grestore
% Uruguay
gsave
1 setlinewidth
0 0 0 nodecolor
5166.9 378 41.69 18 ellipse_path stroke
0 0 0 nodecolor
14 /Times-Roman set_font
5142.9 374.3 moveto 48 (Uruguay) alignedtext
grestore
% Argentina--Uruguay
gsave
1 setlinewidth
0 0 0 edgecolor
newpath 5353.71 576.92 moveto
5316.19 537.16 5219.4 434.62 5181.98 394.98 curveto
stroke
grestore
% Bolivia--Brazil
gsave
1 setlinewidth
0 0 0 edgecolor
newpath 5420.37 504.76 moveto
5411.65 493.46 5400.06 478.44 5391.35 467.15 curveto
stroke
grestore
% Bolivia--Chile
gsave
1 setlinewidth
0 0 0 edgecolor
newpath 5408.63 508.32 moveto
5383.59 495.24 5344.88 475.02 5320.76 462.42 curveto
stroke
grestore
% Bolivia--Paraguay
gsave
1 setlinewidth
0 0 0 edgecolor
newpath 5450.3 505.85 moveto
5471.58 487.59 5508.94 456.32 5542.9 432 curveto
5562.52 417.94 5585.8 403.41 5602.87 393.13 curveto
stroke
grestore
% Peru
gsave
1 setlinewidth
0 0 0 nodecolor
5534.9 234 27 18 ellipse_path stroke
0 0 0 nodecolor
14 /Times-Roman set_font
5522.4 230.3 moveto 25 (Peru) alignedtext
grestore
% Bolivia--Peru
gsave
1 setlinewidth
0 0 0 edgecolor
newpath 5466.8 515.34 moveto
5522.73 503.97 5632.83 472.56 5679.9 396 curveto
5705.86 353.76 5686.43 323.58 5651.9 288 curveto
5623.32 258.56 5603.94 269.64 5566.9 252 curveto
5563.03 250.16 5558.96 248.1 5555.07 246.06 curveto
stroke
grestore
% Brazil--France
gsave
1 setlinewidth
0 0 0 edgecolor
newpath 5354.54 437.68 moveto
5349.15 435.52 5343.4 433.48 5337.9 432 curveto
5268.89 413.45 5055.52 390.72 4972.46 382.32 curveto
stroke
grestore
% Brazil--Paraguay
gsave
1 setlinewidth
0 0 0 edgecolor
newpath 5407.75 441.59 moveto
5445.92 431.69 5515.2 413.38 5573.9 396 curveto
5580.38 394.08 5587.28 391.94 5593.89 389.84 curveto
stroke
grestore
% Brazil--Uruguay
gsave
1 setlinewidth
0 0 0 edgecolor
newpath 5353.89 438.2 moveto
5348.64 436.06 5343.11 433.89 5337.9 432 curveto
5290.98 415.04 5235.68 398.52 5200.94 388.55 curveto
stroke
grestore
% Brazil--Peru
gsave
1 setlinewidth
0 0 0 edgecolor
newpath 5360.95 434.8 moveto
5325.88 405.36 5254.98 336.41 5293.9 288 curveto
5320.54 254.86 5450.76 241.25 5507.91 236.81 curveto
stroke
grestore
% Colombia
gsave
1 setlinewidth
0 0 0 nodecolor
5518.9 378 46.29 18 ellipse_path stroke
0 0 0 nodecolor
14 /Times-Roman set_font
5491.4 374.3 moveto 55 (Colombia) alignedtext
grestore
% Brazil--Colombia
gsave
1 setlinewidth
0 0 0 edgecolor
newpath 5402.33 437.28 moveto
5426.93 424.98 5465.56 405.67 5491.54 392.68 curveto
stroke
grestore
% Guyana
gsave
1 setlinewidth
0 0 0 nodecolor
5378.9 378 38.19 18 ellipse_path stroke
0 0 0 nodecolor
14 /Times-Roman set_font
5357.4 374.3 moveto 43 (Guyana) alignedtext
grestore
% Brazil--Guyana
gsave
1 setlinewidth
0 0 0 edgecolor
newpath 5378.9 431.7 moveto
5378.9 420.85 5378.9 406.92 5378.9 396.1 curveto
stroke
grestore
% Brazil--Suriname
gsave
1 setlinewidth
0 0 0 edgecolor
newpath 5361.03 434.86 moveto
5350.35 425.21 5337.74 411.41 5331.9 396 curveto
5322.76 371.93 5331.9 342.17 5339.64 323.9 curveto
stroke
grestore
% Venezuela
gsave
1 setlinewidth
0 0 0 nodecolor
5458.9 306 48.19 18 ellipse_path stroke
0 0 0 nodecolor
14 /Times-Roman set_font
5429.9 302.3 moveto 58 (Venezuela) alignedtext
grestore
% Brazil--Venezuela
gsave
1 setlinewidth
0 0 0 edgecolor
newpath 5394.97 433.99 moveto
5404.94 423.99 5417.42 410.13 5425.9 396 curveto
5439.8 372.82 5449.43 342.82 5454.56 324.24 curveto
stroke
grestore
% Chile--Peru
gsave
1 setlinewidth
0 0 0 edgecolor
newpath 5289.87 432.7 moveto
5273.67 400.98 5244.4 330.37 5278.9 288 curveto
5307.62 252.72 5448.38 240.19 5508.07 236.42 curveto
stroke
grestore
% Armenia
gsave
1 setlinewidth
0 0 0 nodecolor
3403.9 450 42.49 18 ellipse_path stroke
0 0 0 nodecolor
14 /Times-Roman set_font
3379.4 446.3 moveto 49 (Armenia) alignedtext
grestore
% Armenia--Iran
gsave
1 setlinewidth
0 0 0 edgecolor
newpath 3434.37 437.53 moveto
3491.91 415.82 3620.42 367.01 3727.9 324 curveto
3733.9 321.6 3740.38 318.94 3746.38 316.45 curveto
stroke
grestore
% Azerbaijan
gsave
1 setlinewidth
0 0 0 nodecolor
3442.9 378 49.29 18 ellipse_path stroke
0 0 0 nodecolor
14 /Times-Roman set_font
3412.9 374.3 moveto 60 (Azerbaijan) alignedtext
grestore
% Armenia--Azerbaijan
gsave
1 setlinewidth
0 0 0 edgecolor
newpath 3413.14 432.41 moveto
3419.26 421.41 3427.28 407.03 3433.45 395.96 curveto
stroke
grestore
% Georgia
gsave
1 setlinewidth
0 0 0 nodecolor
3365.9 306 38.99 18 ellipse_path stroke
0 0 0 nodecolor
14 /Times-Roman set_font
3343.9 302.3 moveto 44 (Georgia) alignedtext
grestore
% Armenia--Georgia
gsave
1 setlinewidth
0 0 0 edgecolor
newpath 3397.15 432 moveto
3393.22 421.7 3388.37 408.22 3384.9 396 curveto
3377.89 371.38 3372.14 342.28 3368.87 324.23 curveto
stroke
grestore
% Armenia--Turkey
gsave
1 setlinewidth
0 0 0 edgecolor
newpath 3382.65 434.25 moveto
3351.97 411.03 3298.9 362.8 3298.9 307 curveto
3298.9 307 3298.9 307 3298.9 161 curveto
3298.9 115.48 3308.6 62.48 3314.14 35.95 curveto
stroke
grestore
% Azerbaijan--Iran
gsave
1 setlinewidth
0 0 0 edgecolor
newpath 3489 371.45 moveto
3545.95 363.91 3645.39 348.48 3727.9 324 curveto
3734.25 322.11 3740.96 319.58 3747.07 317.04 curveto
stroke
grestore
% Azerbaijan--Georgia
gsave
1 setlinewidth
0 0 0 edgecolor
newpath 3425.42 361.12 moveto
3412.64 349.5 3395.41 333.83 3382.77 322.34 curveto
stroke
grestore
% Azerbaijan--Turkey
gsave
1 setlinewidth
0 0 0 edgecolor
newpath 3437.7 359.92 moveto
3420.67 304.07 3366.32 127.34 3343.9 72 curveto
3338.89 59.65 3332.27 46.18 3326.95 35.9 curveto
stroke
grestore
% Azerbaijan--Russia
gsave
1 setlinewidth
0 0 0 edgecolor
newpath 3476.25 364.55 moveto
3572.7 328.59 3847.78 226.5 3889.9 216 curveto
3998.82 188.84 4028.83 196.35 4139.9 180 curveto
4166.98 176.01 4197.7 171.38 4220.27 167.96 curveto
stroke
grestore
% Georgia--Turkey
gsave
1 setlinewidth
0 0 0 edgecolor
newpath 3363.04 287.97 moveto
3354.52 237.22 3329.38 87.41 3320.8 36.31 curveto
stroke
grestore
% Georgia--Russia
gsave
1 setlinewidth
0 0 0 edgecolor
newpath 3404.24 302.23 moveto
3487.86 295.76 3684.03 278.22 3744.9 252 curveto
3768.42 241.86 3766.19 225.7 3789.9 216 curveto
3934.61 156.75 3984.76 199.64 4139.9 180 curveto
4167.06 176.56 4197.77 171.89 4220.31 168.31 curveto
stroke
grestore
% Austria
gsave
1 setlinewidth
0 0 0 nodecolor
4374.9 450 36.29 18 ellipse_path stroke
0 0 0 nodecolor
14 /Times-Roman set_font
4354.9 446.3 moveto 40 (Austria) alignedtext
grestore
% Czech Republic
gsave
1 setlinewidth
0 0 0 nodecolor
4260.9 378 66.89 18 ellipse_path stroke
0 0 0 nodecolor
14 /Times-Roman set_font
4217.4 374.3 moveto 87 (Czech Republic) alignedtext
grestore
% Austria--Czech Republic
gsave
1 setlinewidth
0 0 0 edgecolor
newpath 4352.91 435.5 moveto
4333.89 423.82 4306.37 406.93 4286.39 394.65 curveto
stroke
grestore
% Austria--Germany
gsave
1 setlinewidth
0 0 0 edgecolor
newpath 4411.3 448.53 moveto
4486.6 446.71 4655.41 437.93 4690.9 396 curveto
4710.76 372.53 4680.44 340.7 4658.11 322.16 curveto
stroke
grestore
% Hungary
gsave
1 setlinewidth
0 0 0 nodecolor
3657.9 234 41.69 18 ellipse_path stroke
0 0 0 nodecolor
14 /Times-Roman set_font
3633.9 230.3 moveto 48 (Hungary) alignedtext
grestore
% Austria--Hungary
gsave
1 setlinewidth
0 0 0 edgecolor
newpath 4338.81 447.17 moveto
4274.42 443.11 4136.04 430.79 4024.9 396 curveto
3920.94 363.47 3905.17 330.54 3804.9 288 curveto
3766.06 271.53 3720.17 255.51 3690.12 245.47 curveto
stroke
grestore
% Austria--Italy
gsave
1 setlinewidth
0 0 0 edgecolor
newpath 4377.19 431.87 moveto
4380.84 404.58 4387.94 351.52 4391.6 324.19 curveto
stroke
grestore
% Liechtenstein
gsave
1 setlinewidth
0 0 0 nodecolor
4517.9 378 57.69 18 ellipse_path stroke
0 0 0 nodecolor
14 /Times-Roman set_font
4481.4 374.3 moveto 73 (Liechtenstein) alignedtext
grestore
% Austria--Liechtenstein
gsave
1 setlinewidth
0 0 0 edgecolor
newpath 4399.8 436.81 moveto
4424.45 424.74 4462.18 406.27 4488.33 393.47 curveto
stroke
grestore
% Slovakia
gsave
1 setlinewidth
0 0 0 nodecolor
3987.9 162 41.69 18 ellipse_path stroke
0 0 0 nodecolor
14 /Times-Roman set_font
3963.9 158.3 moveto 48 (Slovakia) alignedtext
grestore
% Austria--Slovakia
gsave
1 setlinewidth
0 0 0 edgecolor
newpath 4340.18 444.15 moveto
4300.68 437.56 4235.13 423.33 4184.9 396 curveto
4121.29 361.39 4118.79 334.05 4062.9 288 curveto
4042.59 271.27 4030.99 273.55 4015.9 252 curveto
4000.47 229.98 3993.28 199.09 3990.12 180.1 curveto
stroke
grestore
% Slovenia
gsave
1 setlinewidth
0 0 0 nodecolor
4088.9 162 41.69 18 ellipse_path stroke
0 0 0 nodecolor
14 /Times-Roman set_font
4064.9 158.3 moveto 48 (Slovenia) alignedtext
grestore
% Austria--Slovenia
gsave
1 setlinewidth
0 0 0 edgecolor
newpath 4370.38 431.96 moveto
4364.76 413.01 4353.81 382.18 4336.9 360 curveto
4271.87 274.74 4162.02 205.07 4113.35 176.7 curveto
stroke
grestore
% Austria--Switzerland
gsave
1 setlinewidth
0 0 0 edgecolor
newpath 4386.74 432.85 moveto
4400.86 414.18 4425.73 383.06 4450.9 360 curveto
4503.48 311.82 4576.73 270.21 4616.49 249.32 curveto
stroke
grestore
% Czech Republic--Germany
gsave
1 setlinewidth
0 0 0 edgecolor
newpath 4314.51 367.05 moveto
4391.25 352.8 4530.63 326.92 4598.56 314.3 curveto
stroke
grestore
% Czech Republic--Slovakia
gsave
1 setlinewidth
0 0 0 edgecolor
newpath 4231.4 361.6 moveto
4213.55 351.76 4190.68 338.21 4171.9 324 curveto
4153.34 309.96 4153.31 300.82 4133.9 288 curveto
4100.35 265.84 4082.11 277.35 4050.9 252 curveto
4026.06 231.83 4006.56 199.51 3996.17 179.86 curveto
stroke
grestore
% Poland
gsave
1 setlinewidth
0 0 0 nodecolor
4094.9 234 35.19 18 ellipse_path stroke
0 0 0 nodecolor
14 /Times-Roman set_font
4075.9 230.3 moveto 38 (Poland) alignedtext
grestore
% Czech Republic--Poland
gsave
1 setlinewidth
0 0 0 edgecolor
newpath 4245.97 360.34 moveto
4228.92 341.74 4199.78 311.2 4171.9 288 curveto
4154.18 273.26 4132.43 258.56 4116.57 248.4 curveto
stroke
grestore
% Germany--Switzerland
gsave
1 setlinewidth
0 0 0 edgecolor
newpath 4639.63 287.7 moveto
4640.71 276.85 4642.1 262.92 4643.18 252.1 curveto
stroke
grestore
% Germany--Poland
gsave
1 setlinewidth
0 0 0 edgecolor
newpath 4596.19 299.62 moveto
4492.26 286.23 4223.31 251.55 4128.54 239.34 curveto
stroke
grestore
% Germany--Luxembourg
gsave
1 setlinewidth
0 0 0 edgecolor
newpath 4673.64 295.34 moveto
4721.1 282.51 4804.77 259.9 4855.1 246.3 curveto
stroke
grestore
% Netherlands
gsave
1 setlinewidth
0 0 0 nodecolor
4768.9 234 53.09 18 ellipse_path stroke
0 0 0 nodecolor
14 /Times-Roman set_font
4735.9 230.3 moveto 66 (Netherlands) alignedtext
grestore
% Germany--Netherlands
gsave
1 setlinewidth
0 0 0 edgecolor
newpath 4663.78 291.17 moveto
4686.3 279.14 4718.82 261.76 4741.71 249.52 curveto
stroke
grestore
% Hungary--Slovakia
gsave
1 setlinewidth
0 0 0 edgecolor
newpath 3689.98 222.47 moveto
3697.75 220.14 3706.08 217.82 3713.9 216 curveto
3809.53 193.69 3836.26 202.31 3931.9 180 curveto
3939.71 178.18 3948.04 175.86 3955.81 173.53 curveto
stroke
grestore
% Hungary--Slovenia
gsave
1 setlinewidth
0 0 0 edgecolor
newpath 3689.62 222.26 moveto
3697.48 219.91 3705.93 217.63 3713.9 216 curveto
3856.25 186.77 3897.04 211.58 4038.9 180 curveto
4045.34 178.57 4052.11 176.59 4058.52 174.5 curveto
stroke
grestore
% Ukraine
gsave
1 setlinewidth
0 0 0 nodecolor
3879.9 90 38.99 18 ellipse_path stroke
0 0 0 nodecolor
14 /Times-Roman set_font
3857.9 86.3 moveto 44 (Ukraine) alignedtext
grestore
% Hungary--Ukraine
gsave
1 setlinewidth
0 0 0 edgecolor
newpath 3690.2 222.46 moveto
3725.11 210.74 3778.15 191.9 3795.9 180 curveto
3826.07 159.77 3853.42 126.86 3868.24 107.23 curveto
stroke
grestore
% Hungary--Serbia
gsave
1 setlinewidth
0 0 0 edgecolor
newpath 3653.51 215.95 moveto
3647.19 195.16 3633.37 160.73 3607.9 144 curveto
3528.97 92.16 3231 89.82 3130.34 90.56 curveto
stroke
grestore
% Romania
gsave
1 setlinewidth
0 0 0 nodecolor
3555.9 162 42.79 18 ellipse_path stroke
0 0 0 nodecolor
14 /Times-Roman set_font
3530.9 158.3 moveto 50 (Romania) alignedtext
grestore
% Hungary--Romania
gsave
1 setlinewidth
0 0 0 edgecolor
newpath 3636.76 218.5 moveto
3619.37 206.56 3594.83 189.72 3577.35 177.73 curveto
stroke
grestore
% Italy--Slovenia
gsave
1 setlinewidth
0 0 0 edgecolor
newpath 4415.9 295.51 moveto
4422.01 292.98 4428.68 290.3 4434.9 288 curveto
4483.13 270.14 4514.7 293.65 4544.9 252 curveto
4554.29 239.05 4555.59 227.9 4544.9 216 curveto
4494.86 160.3 4284.2 189.21 4209.9 180 curveto
4182.32 176.58 4151.28 172.21 4127.54 168.76 curveto
stroke
grestore
% Italy--Switzerland
gsave
1 setlinewidth
0 0 0 edgecolor
newpath 4415.8 295.22 moveto
4421.91 292.69 4428.6 290.08 4434.9 288 curveto
4497.11 267.39 4514.35 268.06 4577.9 252 curveto
4586.27 249.88 4595.24 247.61 4603.8 245.44 curveto
stroke
grestore
% San Marino
gsave
1 setlinewidth
0 0 0 nodecolor
4352.9 234 52.79 18 ellipse_path stroke
0 0 0 nodecolor
14 /Times-Roman set_font
4320.4 230.3 moveto 65 (San Marino) alignedtext
grestore
% Italy--San Marino
gsave
1 setlinewidth
0 0 0 edgecolor
newpath 4384.39 288.76 moveto
4377.95 277.78 4369.47 263.29 4362.92 252.12 curveto
stroke
grestore
% Vatican City
gsave
1 setlinewidth
0 0 0 nodecolor
4479.9 234 55.79 18 ellipse_path stroke
0 0 0 nodecolor
14 /Times-Roman set_font
4444.9 230.3 moveto 70 (Vatican City) alignedtext
grestore
% Italy--Vatican City
gsave
1 setlinewidth
0 0 0 edgecolor
newpath 4410.48 291.5 moveto
4424.73 279.9 4445.3 263.16 4460.35 250.91 curveto
stroke
grestore
% Liechtenstein--Switzerland
gsave
1 setlinewidth
0 0 0 edgecolor
newpath 4529.06 360.14 moveto
4541.66 341.63 4563.23 311.43 4584.9 288 curveto
4597.35 274.53 4612.91 260.86 4625.07 250.78 curveto
stroke
grestore
% Slovakia--Ukraine
gsave
1 setlinewidth
0 0 0 edgecolor
newpath 3965.78 146.67 moveto
3947.02 134.51 3920.26 117.16 3901.61 105.08 curveto
stroke
grestore
% Russia--Ukraine
gsave
1 setlinewidth
0 0 0 edgecolor
newpath 4221.79 154.16 moveto
4207 150.97 4189.06 147.18 4172.9 144 curveto
4080.58 125.85 3971.43 106.72 3916.05 97.17 curveto
stroke
grestore
% Bangladesh
gsave
1 setlinewidth
0 0 0 nodecolor
6707.9 450 51.99 18 ellipse_path stroke
0 0 0 nodecolor
14 /Times-Roman set_font
6675.9 446.3 moveto 64 (Bangladesh) alignedtext
grestore
% Burma
gsave
1 setlinewidth
0 0 0 nodecolor
6832.9 378 35.19 18 ellipse_path stroke
0 0 0 nodecolor
14 /Times-Roman set_font
6813.9 374.3 moveto 38 (Burma) alignedtext
grestore
% Bangladesh--Burma
gsave
1 setlinewidth
0 0 0 edgecolor
newpath 6734.1 434.33 moveto
6756.58 421.74 6788.64 403.78 6810.08 391.77 curveto
stroke
grestore
% Bangladesh--India
gsave
1 setlinewidth
0 0 0 edgecolor
newpath 6665.94 439.28 moveto
6643.05 431.61 6616.65 418.35 6602.9 396 curveto
6588.75 373.01 6612.25 294.21 6617.9 288 curveto
6654.2 248.05 6682.42 268.24 6733.9 252 curveto
6743.11 249.09 6753.21 245.86 6762.1 243.01 curveto
stroke
grestore
% Burma--China
gsave
1 setlinewidth
0 0 0 edgecolor
newpath 6806.65 365.9 moveto
6800.87 363.73 6794.73 361.62 6788.9 360 curveto
6691.39 332.92 6572.21 316.89 6516.87 310.39 curveto
stroke
grestore
% Burma--India
gsave
1 setlinewidth
0 0 0 edgecolor
newpath 6827.44 360.15 moveto
6818.58 332.82 6801.19 279.14 6792.35 251.82 curveto
stroke
grestore
% Burma--Laos
gsave
1 setlinewidth
0 0 0 edgecolor
newpath 6836.39 359.87 moveto
6841.97 332.58 6852.8 279.52 6858.38 252.19 curveto
stroke
grestore
% Thailand
gsave
1 setlinewidth
0 0 0 nodecolor
6993.9 162 42.49 18 ellipse_path stroke
0 0 0 nodecolor
14 /Times-Roman set_font
6969.4 158.3 moveto 49 (Thailand) alignedtext
grestore
% Burma--Thailand
gsave
1 setlinewidth
0 0 0 edgecolor
newpath 6867.2 374.01 moveto
6900 369.19 6948.16 356.66 6973.9 324 curveto
7007.37 281.53 7001.88 212.2 6997.05 180.19 curveto
stroke
grestore
% India--Pakistan
gsave
1 setlinewidth
0 0 0 edgecolor
newpath 6760.61 226.49 moveto
6721.54 216.75 6645.86 197.64 6581.9 180 curveto
6573.6 177.71 6564.67 175.15 6556.36 172.71 curveto
stroke
grestore
% India--Nepal
gsave
1 setlinewidth
0 0 0 edgecolor
newpath 6763.75 223.12 moveto
6733.02 210 6678.99 186.94 6647.53 173.52 curveto
stroke
grestore
% Belarus
gsave
1 setlinewidth
0 0 0 nodecolor
3929.9 450 37.89 18 ellipse_path stroke
0 0 0 nodecolor
14 /Times-Roman set_font
3908.9 446.3 moveto 42 (Belarus) alignedtext
grestore
% Belarus--Russia
gsave
1 setlinewidth
0 0 0 edgecolor
newpath 3924.83 431.74 moveto
3916.68 400.23 3904.39 332.51 3933.9 288 curveto
3967.63 237.11 3994.76 240.01 4050.9 216 curveto
4108.23 191.48 4179.71 175.98 4220.44 168.45 curveto
stroke
grestore
% Latvia
gsave
1 setlinewidth
0 0 0 nodecolor
4066.9 378 33.29 18 ellipse_path stroke
0 0 0 nodecolor
14 /Times-Roman set_font
4049.4 374.3 moveto 35 (Latvia) alignedtext
grestore
% Belarus--Latvia
gsave
1 setlinewidth
0 0 0 edgecolor
newpath 3954.7 436.32 moveto
3980 423.4 4018.93 403.51 4043.64 390.88 curveto
stroke
grestore
% Lithuania
gsave
1 setlinewidth
0 0 0 nodecolor
4009.9 306 44.39 18 ellipse_path stroke
0 0 0 nodecolor
14 /Times-Roman set_font
3983.9 302.3 moveto 52 (Lithuania) alignedtext
grestore
% Belarus--Lithuania
gsave
1 setlinewidth
0 0 0 edgecolor
newpath 3939.23 432.43 moveto
3954.56 405.22 3984.92 351.33 4000.37 323.9 curveto
stroke
grestore
% Belarus--Poland
gsave
1 setlinewidth
0 0 0 edgecolor
newpath 3927.66 431.74 moveto
3924.49 399.63 3922.46 330.14 3956.9 288 curveto
3970.82 270.96 4028.02 252.96 4064.27 242.94 curveto
stroke
grestore
% Belarus--Ukraine
gsave
1 setlinewidth
0 0 0 edgecolor
newpath 3923.07 432.09 moveto
3919.2 421.81 3914.6 408.34 3911.9 396 curveto
3888.22 288.09 3881.9 154.73 3880.36 108.07 curveto
stroke
grestore
% Latvia--Russia
gsave
1 setlinewidth
0 0 0 edgecolor
newpath 4081.41 361.43 moveto
4103.16 338 4145.34 292.12 4179.9 252 curveto
4201.54 226.86 4225.81 196.9 4240.2 178.95 curveto
stroke
grestore
% Latvia--Lithuania
gsave
1 setlinewidth
0 0 0 edgecolor
newpath 4053.96 361.12 moveto
4044.76 349.82 4032.45 334.7 4023.17 323.31 curveto
stroke
grestore
% Lithuania--Russia
gsave
1 setlinewidth
0 0 0 edgecolor
newpath 4043.4 294.08 moveto
4070.15 284.7 4108.12 269.88 4138.9 252 curveto
4176.45 230.18 4215.31 197.2 4236.56 178.12 curveto
stroke
grestore
% Lithuania--Poland
gsave
1 setlinewidth
0 0 0 edgecolor
newpath 4028.76 289.46 moveto
4043.14 277.62 4062.81 261.42 4076.96 249.77 curveto
stroke
grestore
% Poland--Slovakia
gsave
1 setlinewidth
0 0 0 edgecolor
newpath 4074.01 219.34 moveto
4055.52 207.24 4028.63 189.65 4009.83 177.35 curveto
stroke
grestore
% Poland--Russia
gsave
1 setlinewidth
0 0 0 edgecolor
newpath 4120.63 221.6 moveto
4150.1 208.54 4198.08 187.29 4227.43 174.28 curveto
stroke
grestore
% Poland--Ukraine
gsave
1 setlinewidth
0 0 0 edgecolor
newpath 4112.34 217.99 moveto
4131.94 199.31 4158.73 167.07 4139.9 144 curveto
4112.36 110.28 3983.77 97.46 3918.34 93.06 curveto
stroke
grestore
% Belgium
gsave
1 setlinewidth
0 0 0 nodecolor
4804.9 450 41.69 18 ellipse_path stroke
0 0 0 nodecolor
14 /Times-Roman set_font
4780.9 446.3 moveto 48 (Belgium) alignedtext
grestore
% Belgium--France
gsave
1 setlinewidth
0 0 0 edgecolor
newpath 4830.41 435.67 moveto
4854.87 422.9 4891.47 403.78 4915.27 391.34 curveto
stroke
grestore
% Belgium--Germany
gsave
1 setlinewidth
0 0 0 edgecolor
newpath 4792.34 432.62 moveto
4777.35 413.73 4750.91 382.41 4723.9 360 curveto
4705.27 344.55 4681.73 330.36 4663.99 320.55 curveto
stroke
grestore
% Belgium--Luxembourg
gsave
1 setlinewidth
0 0 0 edgecolor
newpath 4804.29 431.73 moveto
4803.98 400.77 4806.86 334.7 4833.9 288 curveto
4842.85 272.54 4858.08 259.54 4871.32 250.28 curveto
stroke
grestore
% Belgium--Netherlands
gsave
1 setlinewidth
0 0 0 edgecolor
newpath 4795.91 432.14 moveto
4786.25 414.15 4770.33 384.87 4755.9 360 curveto
4746.48 343.78 4738.97 342.05 4733.9 324 curveto
4729.56 308.6 4729.29 303.32 4733.9 288 curveto
4737.96 274.48 4746.71 261.23 4754.44 251.36 curveto
stroke
grestore
% Belize
gsave
1 setlinewidth
0 0 0 nodecolor
6444.9 522 33.29 18 ellipse_path stroke
0 0 0 nodecolor
14 /Times-Roman set_font
6427.4 518.3 moveto 35 (Belize) alignedtext
grestore
% Guatemala
gsave
1 setlinewidth
0 0 0 nodecolor
6406.9 450 49.29 18 ellipse_path stroke
0 0 0 nodecolor
14 /Times-Roman set_font
6376.9 446.3 moveto 60 (Guatemala) alignedtext
grestore
% Belize--Guatemala
gsave
1 setlinewidth
0 0 0 edgecolor
newpath 6435.89 504.41 moveto
6429.92 493.41 6422.11 479.03 6416.1 467.96 curveto
stroke
grestore
% Mexico
gsave
1 setlinewidth
0 0 0 nodecolor
6741.9 378 38.19 18 ellipse_path stroke
0 0 0 nodecolor
14 /Times-Roman set_font
6720.4 374.3 moveto 43 (Mexico) alignedtext
grestore
% Belize--Mexico
gsave
1 setlinewidth
0 0 0 edgecolor
newpath 6468.95 509.5 moveto
6524.05 483.16 6659.03 418.62 6715.93 391.41 curveto
stroke
grestore
% Guatemala--Mexico
gsave
1 setlinewidth
0 0 0 edgecolor
newpath 6452.56 442.98 moveto
6509.79 434.88 6610.62 418.83 6694.9 396 curveto
6700.93 394.37 6707.28 392.31 6713.3 390.19 curveto
stroke
grestore
% Honduras
gsave
1 setlinewidth
0 0 0 nodecolor
5969.9 378 44.69 18 ellipse_path stroke
0 0 0 nodecolor
14 /Times-Roman set_font
5943.4 374.3 moveto 53 (Honduras) alignedtext
grestore
% Guatemala--Honduras
gsave
1 setlinewidth
0 0 0 edgecolor
newpath 6359.27 445 moveto
6286.38 438.29 6143.09 422.81 6023.9 396 curveto
6016.99 394.45 6009.7 392.42 6002.78 390.32 curveto
stroke
grestore
% United States
gsave
1 setlinewidth
0 0 0 nodecolor
6684.9 306 57.69 18 ellipse_path stroke
0 0 0 nodecolor
14 /Times-Roman set_font
6648.4 302.3 moveto 73 (United States) alignedtext
grestore
% Mexico--United States
gsave
1 setlinewidth
0 0 0 edgecolor
newpath 6728.67 360.76 moveto
6719.6 349.62 6707.59 334.87 6698.44 323.63 curveto
stroke
grestore
% Benin
gsave
1 setlinewidth
0 0 0 nodecolor
748.9 594 31.7 18 ellipse_path stroke
0 0 0 nodecolor
14 /Times-Roman set_font
732.4 590.3 moveto 33 (Benin) alignedtext
grestore
% Benin--Niger
gsave
1 setlinewidth
0 0 0 edgecolor
newpath 752.65 576.05 moveto
758.19 549.52 767.9 496.52 767.9 451 curveto
767.9 451 767.9 451 767.9 377 curveto
767.9 331.39 757.16 278.43 751.04 251.93 curveto
stroke
grestore
% Burkina Faso
gsave
1 setlinewidth
0 0 0 nodecolor
629.9 522 57.69 18 ellipse_path stroke
0 0 0 nodecolor
14 /Times-Roman set_font
593.4 518.3 moveto 73 (Burkina Faso) alignedtext
grestore
% Benin--Burkina Faso
gsave
1 setlinewidth
0 0 0 edgecolor
newpath 727.62 580.49 moveto
707.56 568.69 677.46 550.98 655.97 538.34 curveto
stroke
grestore
% Benin--Nigeria
gsave
1 setlinewidth
0 0 0 edgecolor
newpath 760.16 576.8 moveto
776.77 551.29 805.9 499.61 805.9 451 curveto
805.9 451 805.9 451 805.9 305 curveto
805.9 259.48 815.6 206.48 821.14 179.95 curveto
stroke
grestore
% Togo
gsave
1 setlinewidth
0 0 0 nodecolor
672.9 306 29.5 18 ellipse_path stroke
0 0 0 nodecolor
14 /Times-Roman set_font
658.4 302.3 moveto 29 (Togo) alignedtext
grestore
% Benin--Togo
gsave
1 setlinewidth
0 0 0 edgecolor
newpath 744.37 575.97 moveto
730.85 525.1 690.88 374.7 677.4 323.94 curveto
stroke
grestore
% Burkina Faso--Mali
gsave
1 setlinewidth
0 0 0 edgecolor
newpath 602.39 506.16 moveto
562.97 484.35 488.87 441.27 431.9 396 curveto
402.48 372.62 372.2 340.77 355.34 322.19 curveto
stroke
grestore
% Burkina Faso--Niger
gsave
1 setlinewidth
0 0 0 edgecolor
newpath 639.92 504.12 moveto
645.81 493.86 653.2 480.39 658.9 468 curveto
695.11 389.23 728.58 290.92 741.39 252 curveto
stroke
grestore
% Burkina Faso--Togo
gsave
1 setlinewidth
0 0 0 edgecolor
newpath 633.34 503.85 moveto
641.41 463.68 661.46 363.89 669.49 323.94 curveto
stroke
grestore
% Cote d'Ivoire
gsave
1 setlinewidth
0 0 0 nodecolor
327.9 450 56.59 18 ellipse_path stroke
0 0 0 nodecolor
14 /Times-Roman set_font
292.4 446.3 moveto 71 (Cote d'Ivoire) alignedtext
grestore
% Burkina Faso--Cote d'Ivoire
gsave
1 setlinewidth
0 0 0 edgecolor
newpath 584.28 510.67 moveto
537.67 500.08 463.19 483.07 398.9 468 curveto
390.01 465.92 380.51 463.66 371.44 461.49 curveto
stroke
grestore
% Ghana
gsave
1 setlinewidth
0 0 0 nodecolor
591.9 378 33.6 18 ellipse_path stroke
0 0 0 nodecolor
14 /Times-Roman set_font
573.9 374.3 moveto 36 (Ghana) alignedtext
grestore
% Burkina Faso--Ghana
gsave
1 setlinewidth
0 0 0 edgecolor
newpath 625.31 503.87 moveto
618.01 476.58 603.81 423.52 596.49 396.19 curveto
stroke
grestore
% Bhutan
gsave
1 setlinewidth
0 0 0 nodecolor
6502.9 378 36.29 18 ellipse_path stroke
0 0 0 nodecolor
14 /Times-Roman set_font
6482.9 374.3 moveto 40 (Bhutan) alignedtext
grestore
% Bhutan--China
gsave
1 setlinewidth
0 0 0 edgecolor
newpath 6498.78 360.05 moveto
6496.15 349.21 6492.74 335.18 6490.09 324.28 curveto
stroke
grestore
% Bhutan--India
gsave
1 setlinewidth
0 0 0 edgecolor
newpath 6510.76 360.35 moveto
6521.28 339.97 6541.9 305.97 6569.9 288 curveto
6632.69 247.68 6661.84 271.42 6733.9 252 curveto
6743.23 249.49 6753.35 246.34 6762.23 243.44 curveto
stroke
grestore
% Bosnia and Herzegovina
gsave
1 setlinewidth
0 0 0 nodecolor
3070.9 378 97.48 18 ellipse_path stroke
0 0 0 nodecolor
14 /Times-Roman set_font
3003.9 374.3 moveto 134 (Bosnia and Herzegovina) alignedtext
grestore
% Bosnia and Herzegovina--Montenegro
gsave
1 setlinewidth
0 0 0 edgecolor
newpath 3064.32 359.85 moveto
3048.93 319.68 3010.69 219.89 2995.38 179.94 curveto
stroke
grestore
% Croatia
gsave
1 setlinewidth
0 0 0 nodecolor
3234.9 306 36.29 18 ellipse_path stroke
0 0 0 nodecolor
14 /Times-Roman set_font
3214.9 302.3 moveto 40 (Croatia) alignedtext
grestore
% Bosnia and Herzegovina--Croatia
gsave
1 setlinewidth
0 0 0 edgecolor
newpath 3107.7 361.29 moveto
3138.2 348.27 3180.84 330.07 3208.16 318.41 curveto
stroke
grestore
% Bosnia and Herzegovina--Serbia
gsave
1 setlinewidth
0 0 0 edgecolor
newpath 3072.44 359.97 moveto
3077.06 309.22 3090.68 159.41 3095.32 108.31 curveto
stroke
grestore
% Croatia--Montenegro
gsave
1 setlinewidth
0 0 0 edgecolor
newpath 3212.19 291.9 moveto
3166.4 265.46 3063.21 205.9 3014.84 177.98 curveto
stroke
grestore
% Croatia--Hungary
gsave
1 setlinewidth
0 0 0 edgecolor
newpath 3267.5 297.7 moveto
3282.76 294.45 3301.2 290.74 3317.9 288 curveto
3446.06 266.95 3481.31 281.06 3607.9 252 curveto
3614.33 250.52 3621.1 248.53 3627.51 246.43 curveto
stroke
grestore
% Croatia--Slovenia
gsave
1 setlinewidth
0 0 0 edgecolor
newpath 3267.07 297.55 moveto
3282.39 294.22 3301.02 290.5 3317.9 288 curveto
3490.53 262.45 3547.78 319.06 3708.9 252 curveto
3731.91 242.42 3729.05 225.96 3751.9 216 curveto
3869.75 164.65 3913.62 208.84 4038.9 180 curveto
4045.33 178.52 4052.1 176.53 4058.51 174.43 curveto
stroke
grestore
% Croatia--Serbia
gsave
1 setlinewidth
0 0 0 edgecolor
newpath 3224.3 288.56 moveto
3198.55 248.63 3132.93 146.89 3107.34 107.2 curveto
stroke
grestore
% Botswana
gsave
1 setlinewidth
0 0 0 nodecolor
2257.9 378 45.49 18 ellipse_path stroke
0 0 0 nodecolor
14 /Times-Roman set_font
2230.9 374.3 moveto 54 (Botswana) alignedtext
grestore
% Botswana--Namibia
gsave
1 setlinewidth
0 0 0 edgecolor
newpath 2242.01 361.12 moveto
2230.56 349.66 2215.16 334.26 2203.72 322.82 curveto
stroke
grestore
% Botswana--South Africa
gsave
1 setlinewidth
0 0 0 edgecolor
newpath 2254.28 359.87 moveto
2248.51 332.58 2237.3 279.52 2231.53 252.19 curveto
stroke
grestore
% Botswana--Zimbabwe
gsave
1 setlinewidth
0 0 0 edgecolor
newpath 2302.83 374.76 moveto
2371.44 370.28 2497.31 357.6 2524.9 324 curveto
2535.05 311.63 2533.18 301.69 2524.9 288 curveto
2450.76 165.62 2272.9 115.64 2190.78 98.57 curveto
stroke
grestore
% South Africa--Zimbabwe
gsave
1 setlinewidth
0 0 0 edgecolor
newpath 2225.55 215.9 moveto
2222.4 197.17 2215.54 166.79 2201.9 144 curveto
2193.19 129.46 2179.55 116.12 2168.15 106.46 curveto
stroke
grestore
% Swaziland
gsave
1 setlinewidth
0 0 0 nodecolor
2145.9 162 47.39 18 ellipse_path stroke
0 0 0 nodecolor
14 /Times-Roman set_font
2117.4 158.3 moveto 57 (Swaziland) alignedtext
grestore
% South Africa--Swaziland
gsave
1 setlinewidth
0 0 0 edgecolor
newpath 2208.88 216.76 moveto
2195.44 205.29 2177.53 190.01 2164.25 178.67 curveto
stroke
grestore
% Colombia--Peru
gsave
1 setlinewidth
0 0 0 edgecolor
newpath 5520.83 359.87 moveto
5523.9 332.58 5529.88 279.52 5532.96 252.19 curveto
stroke
grestore
% Colombia--Venezuela
gsave
1 setlinewidth
0 0 0 edgecolor
newpath 5504.98 360.76 moveto
5495.42 349.62 5482.78 334.87 5473.15 323.63 curveto
stroke
grestore
% Ecuador
gsave
1 setlinewidth
0 0 0 nodecolor
5602.9 306 40.09 18 ellipse_path stroke
0 0 0 nodecolor
14 /Times-Roman set_font
5579.9 302.3 moveto 46 (Ecuador) alignedtext
grestore
% Colombia--Ecuador
gsave
1 setlinewidth
0 0 0 edgecolor
newpath 5537.54 361.46 moveto
5551.55 349.78 5570.66 333.86 5584.59 322.25 curveto
stroke
grestore
% Panama
gsave
1 setlinewidth
0 0 0 nodecolor
5831.9 306 38.99 18 ellipse_path stroke
0 0 0 nodecolor
14 /Times-Roman set_font
5809.9 302.3 moveto 44 (Panama) alignedtext
grestore
% Colombia--Panama
gsave
1 setlinewidth
0 0 0 edgecolor
newpath 5553.03 365.7 moveto
5559.9 363.64 5567.09 361.63 5573.9 360 curveto
5665.99 337.97 5692.26 347.89 5783.9 324 curveto
5790.14 322.37 5796.73 320.29 5802.95 318.15 curveto
stroke
grestore
% Guyana--Suriname
gsave
1 setlinewidth
0 0 0 edgecolor
newpath 5371.39 360.05 moveto
5366.52 349.05 5360.19 334.76 5355.33 323.79 curveto
stroke
grestore
% Guyana--Venezuela
gsave
1 setlinewidth
0 0 0 edgecolor
newpath 5396.25 361.81 moveto
5409.4 350.31 5427.4 334.56 5440.74 322.89 curveto
stroke
grestore
% Brunei
gsave
1 setlinewidth
0 0 0 nodecolor
7065.9 306 34.39 18 ellipse_path stroke
0 0 0 nodecolor
14 /Times-Roman set_font
7047.4 302.3 moveto 37 (Brunei) alignedtext
grestore
% Malaysia
gsave
1 setlinewidth
0 0 0 nodecolor
7065.9 234 43.59 18 ellipse_path stroke
0 0 0 nodecolor
14 /Times-Roman set_font
7040.4 230.3 moveto 51 (Malaysia) alignedtext
grestore
% Brunei--Malaysia
gsave
1 setlinewidth
0 0 0 edgecolor
newpath 7065.9 287.7 moveto
7065.9 276.85 7065.9 262.92 7065.9 252.1 curveto
stroke
grestore
% Malaysia--Thailand
gsave
1 setlinewidth
0 0 0 edgecolor
newpath 7049.56 217.12 moveto
7037.77 205.66 7021.94 190.26 7010.17 178.82 curveto
stroke
grestore
% Bulgaria
gsave
1 setlinewidth
0 0 0 nodecolor
3139.9 306 40.89 18 ellipse_path stroke
0 0 0 nodecolor
14 /Times-Roman set_font
3116.4 302.3 moveto 47 (Bulgaria) alignedtext
grestore
% Bulgaria--Greece
gsave
1 setlinewidth
0 0 0 edgecolor
newpath 3102.48 298.47 moveto
3046.3 288.62 2936.79 269.29 2843.9 252 curveto
2825.69 248.61 2805.4 244.7 2788.89 241.48 curveto
stroke
grestore
% Bulgaria--Macedonia
gsave
1 setlinewidth
0 0 0 edgecolor
newpath 3100.24 301.15 moveto
3035.76 294.21 2911.84 277.89 2876.9 252 curveto
2852.77 234.13 2839.46 200.42 2833.28 180.01 curveto
stroke
grestore
% Bulgaria--Turkey
gsave
1 setlinewidth
0 0 0 edgecolor
newpath 3150.23 288.39 moveto
3181.77 237.72 3276.47 85.55 3307.75 35.3 curveto
stroke
grestore
% Bulgaria--Serbia
gsave
1 setlinewidth
0 0 0 edgecolor
newpath 3136.45 287.85 moveto
3128.38 247.68 3108.33 147.89 3100.3 107.94 curveto
stroke
grestore
% Bulgaria--Romania
gsave
1 setlinewidth
0 0 0 edgecolor
newpath 3171.16 294.33 moveto
3248.07 268.08 3445.82 200.57 3523.69 173.99 curveto
stroke
grestore
% Romania--Ukraine
gsave
1 setlinewidth
0 0 0 edgecolor
newpath 3593.06 152.97 moveto
3656.23 139.32 3783.63 111.8 3845.13 98.51 curveto
stroke
grestore
% Romania--Serbia
gsave
1 setlinewidth
0 0 0 edgecolor
newpath 3516.36 154.97 moveto
3426.77 141.31 3209.75 108.21 3128.4 95.8 curveto
stroke
grestore
% Cote d'Ivoire--Mali
gsave
1 setlinewidth
0 0 0 edgecolor
newpath 329.58 431.87 moveto
332.27 404.58 337.51 351.52 340.2 324.19 curveto
stroke
grestore
% Cote d'Ivoire--Ghana
gsave
1 setlinewidth
0 0 0 edgecolor
newpath 370.02 437.83 moveto
423.74 423.59 515.27 399.32 562.21 386.87 curveto
stroke
grestore
% Guinea
gsave
1 setlinewidth
0 0 0 nodecolor
255.9 378 36.29 18 ellipse_path stroke
0 0 0 nodecolor
14 /Times-Roman set_font
235.9 374.3 moveto 40 (Guinea) alignedtext
grestore
% Cote d'Ivoire--Guinea
gsave
1 setlinewidth
0 0 0 edgecolor
newpath 311.2 432.76 moveto
299.4 421.29 283.67 406.01 272.01 394.67 curveto
stroke
grestore
% Liberia
gsave
1 setlinewidth
0 0 0 nodecolor
141.9 306 36.29 18 ellipse_path stroke
0 0 0 nodecolor
14 /Times-Roman set_font
121.9 302.3 moveto 40 (Liberia) alignedtext
grestore
% Cote d'Ivoire--Liberia
gsave
1 setlinewidth
0 0 0 edgecolor
newpath 288.94 436.78 moveto
264.84 427.97 234.17 414.38 210.9 396 curveto
184.81 375.4 162.94 342.91 151.19 323.41 curveto
stroke
grestore
% Ghana--Togo
gsave
1 setlinewidth
0 0 0 edgecolor
newpath 609.07 362.15 moveto
623.1 350.03 642.78 333.02 656.57 321.11 curveto
stroke
grestore
% Laos--Thailand
gsave
1 setlinewidth
0 0 0 edgecolor
newpath 6882.81 221.91 moveto
6906.07 209.57 6943.65 189.65 6968.56 176.43 curveto
stroke
grestore
% Laos--Vietnam
gsave
1 setlinewidth
0 0 0 edgecolor
newpath 6840.98 221.91 moveto
6817.72 209.57 6780.14 189.65 6755.23 176.43 curveto
stroke
grestore
% Burundi
gsave
1 setlinewidth
0 0 0 nodecolor
1832.9 450 39.79 18 ellipse_path stroke
0 0 0 nodecolor
14 /Times-Roman set_font
1810.4 446.3 moveto 45 (Burundi) alignedtext
grestore
% Burundi--Democratic Republic of the Congo
gsave
1 setlinewidth
0 0 0 edgecolor
newpath 1804.87 436.97 moveto
1778.11 425.47 1737.58 408.07 1707.91 395.33 curveto
stroke
grestore
% Burundi--Rwanda
gsave
1 setlinewidth
0 0 0 edgecolor
newpath 1833.13 431.67 moveto
1832.55 412.46 1829.07 381.39 1813.9 360 curveto
1799.88 340.24 1775.95 326.45 1756.73 317.9 curveto
stroke
grestore
% Burundi--Tanzania
gsave
1 setlinewidth
0 0 0 edgecolor
newpath 1834.11 431.82 moveto
1834.79 421.46 1835.56 407.98 1835.9 396 curveto
1837.37 343.74 1835.09 281.92 1833.75 252.39 curveto
stroke
grestore
% Rwanda--Tanzania
gsave
1 setlinewidth
0 0 0 edgecolor
newpath 1748.35 290.83 moveto
1766.49 278.85 1792.4 261.74 1810.75 249.63 curveto
stroke
grestore
% Rwanda--Uganda
gsave
1 setlinewidth
0 0 0 edgecolor
newpath 1711.71 289.26 moveto
1685.38 261.97 1631.53 206.15 1605.15 178.81 curveto
stroke
grestore
% Tanzania--Zambia
gsave
1 setlinewidth
0 0 0 edgecolor
newpath 1860.77 220.16 moveto
1888.63 207.33 1931.13 187.76 1958.46 175.17 curveto
stroke
grestore
% Tanzania--Uganda
gsave
1 setlinewidth
0 0 0 edgecolor
newpath 1798.59 223.12 moveto
1751.5 209.55 1667.45 185.34 1621.7 172.16 curveto
stroke
grestore
% Cambodia
gsave
1 setlinewidth
0 0 0 nodecolor
6917.9 306 47.39 18 ellipse_path stroke
0 0 0 nodecolor
14 /Times-Roman set_font
6889.4 302.3 moveto 57 (Cambodia) alignedtext
grestore
% Cambodia--Laos
gsave
1 setlinewidth
0 0 0 edgecolor
newpath 6904.62 288.41 moveto
6895.44 276.93 6883.3 261.75 6874.3 250.51 curveto
stroke
grestore
% Cambodia--Thailand
gsave
1 setlinewidth
0 0 0 edgecolor
newpath 6926.91 288.15 moveto
6941.54 260.82 6970.27 207.14 6984.89 179.82 curveto
stroke
grestore
% Cambodia--Vietnam
gsave
1 setlinewidth
0 0 0 edgecolor
newpath 6919.07 287.96 moveto
6919.46 268.14 6916.97 235.65 6898.9 216 curveto
6861.49 175.33 6832.5 196.9 6779.9 180 curveto
6773.87 178.07 6767.46 175.94 6761.31 173.86 curveto
stroke
grestore
% Cameroon
gsave
1 setlinewidth
0 0 0 nodecolor
970.9 522 48.19 18 ellipse_path stroke
0 0 0 nodecolor
14 /Times-Roman set_font
941.9 518.3 moveto 58 (Cameroon) alignedtext
grestore
% Cameroon--Republic of the Congo
gsave
1 setlinewidth
0 0 0 edgecolor
newpath 1014.46 514.2 moveto
1044.3 507.37 1082.71 493.95 1106.9 468 curveto
1145.21 426.89 1154.18 356.88 1156.27 324.45 curveto
stroke
grestore
% Cameroon--Nigeria
gsave
1 setlinewidth
0 0 0 edgecolor
newpath 944.27 506.81 moveto
907.03 484.81 843.9 438.7 843.9 379 curveto
843.9 379 843.9 379 843.9 305 curveto
843.9 259.48 834.19 206.48 828.65 179.95 curveto
stroke
grestore
% Central African Republic
gsave
1 setlinewidth
0 0 0 nodecolor
1253.9 450 100.18 18 ellipse_path stroke
0 0 0 nodecolor
14 /Times-Roman set_font
1184.9 446.3 moveto 138 (Central African Republic) alignedtext
grestore
% Cameroon--Central African Republic
gsave
1 setlinewidth
0 0 0 edgecolor
newpath 1009.95 511.34 moveto
1058.62 499.3 1142.15 478.64 1197.7 464.9 curveto
stroke
grestore
% Chad
gsave
1 setlinewidth
0 0 0 nodecolor
940.9 378 29.5 18 ellipse_path stroke
0 0 0 nodecolor
14 /Times-Roman set_font
926.4 374.3 moveto 29 (Chad) alignedtext
grestore
% Cameroon--Chad
gsave
1 setlinewidth
0 0 0 edgecolor
newpath 944.06 506.91 moveto
929.89 497.88 913.83 484.7 905.9 468 curveto
893.86 442.65 912.97 411.99 927.35 394.07 curveto
stroke
grestore
% Equatorial Guinea
gsave
1 setlinewidth
0 0 0 nodecolor
1022.9 450 75.29 18 ellipse_path stroke
0 0 0 nodecolor
14 /Times-Roman set_font
972.9 446.3 moveto 100 (Equatorial Guinea) alignedtext
grestore
% Cameroon--Equatorial Guinea
gsave
1 setlinewidth
0 0 0 edgecolor
newpath 983.22 504.41 moveto
991.39 493.41 1002.07 479.03 1010.3 467.96 curveto
stroke
grestore
% Gabon
gsave
1 setlinewidth
0 0 0 nodecolor
1022.9 378 34.39 18 ellipse_path stroke
0 0 0 nodecolor
14 /Times-Roman set_font
1004.4 374.3 moveto 37 (Gabon) alignedtext
grestore
% Cameroon--Gabon
gsave
1 setlinewidth
0 0 0 edgecolor
newpath 956.93 504.58 moveto
943.1 486.2 925.73 455.87 938.9 432 curveto
945.51 420 976.32 402.46 998.71 390.89 curveto
stroke
grestore
% Central African Republic--Democratic Republic of the Congo
gsave
1 setlinewidth
0 0 0 edgecolor
newpath 1324.46 437.13 moveto
1397.83 424.78 1512.49 405.49 1589.36 392.55 curveto
stroke
grestore
% Central African Republic--Republic of the Congo
gsave
1 setlinewidth
0 0 0 edgecolor
newpath 1242.19 431.87 moveto
1223.55 404.58 1187.31 351.52 1168.64 324.19 curveto
stroke
grestore
% Central African Republic--Chad
gsave
1 setlinewidth
0 0 0 edgecolor
newpath 1176.01 438.61 moveto
1120.55 430.08 1044.68 416.11 979.9 396 curveto
974.39 394.29 968.62 392.05 963.26 389.75 curveto
stroke
grestore
% Central African Republic--Sudan
gsave
1 setlinewidth
0 0 0 edgecolor
newpath 1261.75 431.85 moveto
1280.19 391.58 1326.07 291.4 1344.27 251.64 curveto
stroke
grestore
% Chad--Libya
gsave
1 setlinewidth
0 0 0 edgecolor
newpath 940.9 359.7 moveto
940.9 348.85 940.9 334.92 940.9 324.1 curveto
stroke
grestore
% Chad--Niger
gsave
1 setlinewidth
0 0 0 edgecolor
newpath 922.64 363.64 moveto
885.67 336.58 802.29 275.55 765.24 248.43 curveto
stroke
grestore
% Chad--Nigeria
gsave
1 setlinewidth
0 0 0 edgecolor
newpath 956.15 362.34 moveto
965.26 352.48 975.99 338.65 980.9 324 curveto
996.25 278.16 998.94 253.06 967.9 216 curveto
941.29 184.23 893.77 171.5 860.85 166.4 curveto
stroke
grestore
% Chad--Sudan
gsave
1 setlinewidth
0 0 0 edgecolor
newpath 959.46 364.06 moveto
974.37 353.53 995.74 338.16 1013.9 324 curveto
1033.55 308.67 1034.32 298.56 1056.9 288 curveto
1145.51 246.56 1263.07 237.4 1319.27 235.46 curveto
stroke
grestore
% Equatorial Guinea--Gabon
gsave
1 setlinewidth
0 0 0 edgecolor
newpath 1022.9 431.7 moveto
1022.9 420.85 1022.9 406.92 1022.9 396.1 curveto
stroke
grestore
% Gabon--Republic of the Congo
gsave
1 setlinewidth
0 0 0 edgecolor
newpath 1046.54 364.65 moveto
1068.63 353.11 1101.74 335.81 1125.93 323.18 curveto
stroke
grestore
% Canada
gsave
1 setlinewidth
0 0 0 nodecolor
6648.9 378 37.09 18 ellipse_path stroke
0 0 0 nodecolor
14 /Times-Roman set_font
6628.4 374.3 moveto 41 (Canada) alignedtext
grestore
% Canada--United States
gsave
1 setlinewidth
0 0 0 edgecolor
newpath 6657.43 360.41 moveto
6663.08 349.41 6670.48 335.03 6676.17 323.96 curveto
stroke
grestore
% Sudan--Uganda
gsave
1 setlinewidth
0 0 0 edgecolor
newpath 1380.13 224.7 moveto
1424.83 211.55 1511.59 186.03 1558.3 172.29 curveto
stroke
grestore
% Kazakhstan--Turkmenistan
gsave
1 setlinewidth
0 0 0 edgecolor
newpath 6211.28 221.8 moveto
6203.87 219.78 6196.16 217.76 6188.9 216 curveto
6116.89 198.59 6032.7 181.99 5980.58 172.15 curveto
stroke
grestore
% Kazakhstan--Uzbekistan
gsave
1 setlinewidth
0 0 0 edgecolor
newpath 6249.9 215.85 moveto
6249.9 175.78 6249.9 76.38 6249.9 36.23 curveto
stroke
grestore
% Kazakhstan--Russia
gsave
1 setlinewidth
0 0 0 edgecolor
newpath 6213.11 221.19 moveto
6205.2 219.09 6196.83 217.2 6188.9 216 curveto
5993.98 186.62 4531.69 166.59 4287.44 163.44 curveto
stroke
grestore
% Kazakhstan--Kyrgyzstan
gsave
1 setlinewidth
0 0 0 edgecolor
newpath 6280.34 219.34 moveto
6307.83 207 6348.06 188.95 6375.52 176.63 curveto
stroke
grestore
% Kyrgyzstan--Tajikistan
gsave
1 setlinewidth
0 0 0 edgecolor
newpath 6387.51 145.12 moveto
6374.17 133.58 6356.19 118.05 6342.92 106.58 curveto
stroke
grestore
% Kyrgyzstan--Uzbekistan
gsave
1 setlinewidth
0 0 0 edgecolor
newpath 6405.21 143.8 moveto
6403.55 124.13 6398.01 92.08 6379.9 72 curveto
6357.61 47.3 6322.13 33.87 6293.86 26.72 curveto
stroke
grestore
% Mongolia--Russia
gsave
1 setlinewidth
0 0 0 edgecolor
newpath 5935.21 221.74 moveto
5927.02 219.43 5918.21 217.31 5909.9 216 curveto
5581.33 164.24 4495.41 162.74 4287.48 162.94 curveto
stroke
grestore
% North Korea--Russia
gsave
1 setlinewidth
0 0 0 edgecolor
newpath 6078.86 223.97 moveto
6061.4 220.9 6041.3 217.8 6022.9 216 curveto
5667.97 181.27 4502.67 165.96 4287.29 163.39 curveto
stroke
grestore
% South Korea
gsave
1 setlinewidth
0 0 0 nodecolor
6124.9 162 55.49 18 ellipse_path stroke
0 0 0 nodecolor
14 /Times-Roman set_font
6090.4 158.3 moveto 69 (South Korea) alignedtext
grestore
% North Korea--South Korea
gsave
1 setlinewidth
0 0 0 edgecolor
newpath 6124.9 215.7 moveto
6124.9 204.85 6124.9 190.92 6124.9 180.1 curveto
stroke
grestore
% Ecuador--Peru
gsave
1 setlinewidth
0 0 0 edgecolor
newpath 5587.46 289.12 moveto
5576.02 277.34 5560.53 261.39 5549.33 249.86 curveto
stroke
grestore
% Costa Rica
gsave
1 setlinewidth
0 0 0 nodecolor
5844.9 378 49.29 18 ellipse_path stroke
0 0 0 nodecolor
14 /Times-Roman set_font
5814.9 374.3 moveto 60 (Costa Rica) alignedtext
grestore
% Costa Rica--Panama
gsave
1 setlinewidth
0 0 0 edgecolor
newpath 5841.68 359.7 moveto
5839.67 348.85 5837.08 334.92 5835.07 324.1 curveto
stroke
grestore
% Nicaragua
gsave
1 setlinewidth
0 0 0 nodecolor
5935.9 306 46.59 18 ellipse_path stroke
0 0 0 nodecolor
14 /Times-Roman set_font
5907.9 302.3 moveto 56 (Nicaragua) alignedtext
grestore
% Costa Rica--Nicaragua
gsave
1 setlinewidth
0 0 0 edgecolor
newpath 5865.09 361.46 moveto
5880.17 349.86 5900.69 334.08 5915.76 322.49 curveto
stroke
grestore
% Guinea--Mali
gsave
1 setlinewidth
0 0 0 edgecolor
newpath 274.13 362.15 moveto
289.22 349.87 310.48 332.57 325.14 320.64 curveto
stroke
grestore
% Guinea--Liberia
gsave
1 setlinewidth
0 0 0 edgecolor
newpath 233.91 363.5 moveto
213.73 351.11 183.97 332.84 163.81 320.46 curveto
stroke
grestore
% Guinea-Bissau
gsave
1 setlinewidth
0 0 0 nodecolor
191.9 234 62.29 18 ellipse_path stroke
0 0 0 nodecolor
14 /Times-Roman set_font
151.9 230.3 moveto 80 (Guinea-Bissau) alignedtext
grestore
% Guinea--Guinea-Bissau
gsave
1 setlinewidth
0 0 0 edgecolor
newpath 249.63 360.05 moveto
242.81 341.98 231.35 312.64 219.9 288 curveto
214.19 275.73 207.06 262.26 201.42 251.96 curveto
stroke
grestore
% Guinea--Senegal
gsave
1 setlinewidth
0 0 0 edgecolor
newpath 259.5 359.85 moveto
267.95 319.68 288.93 219.89 297.33 179.94 curveto
stroke
grestore
% Sierra Leone
gsave
1 setlinewidth
0 0 0 nodecolor
55.9 234 55.79 18 ellipse_path stroke
0 0 0 nodecolor
14 /Times-Roman set_font
20.9 230.3 moveto 70 (Sierra Leone) alignedtext
grestore
% Guinea--Sierra Leone
gsave
1 setlinewidth
0 0 0 edgecolor
newpath 244.71 360.55 moveto
229.02 337.87 200.85 298.56 186.9 288 curveto
160.39 267.94 125.24 254.26 98.03 245.84 curveto
stroke
grestore
% Liberia--Sierra Leone
gsave
1 setlinewidth
0 0 0 edgecolor
newpath 123.66 290.15 moveto
109.56 278.68 90.06 262.81 75.6 251.04 curveto
stroke
grestore
% Denmark
gsave
1 setlinewidth
0 0 0 nodecolor
4637.9 378 44.39 18 ellipse_path stroke
0 0 0 nodecolor
14 /Times-Roman set_font
4611.9 374.3 moveto 52 (Denmark) alignedtext
grestore
% Denmark--Germany
gsave
1 setlinewidth
0 0 0 edgecolor
newpath 4637.9 359.7 moveto
4637.9 348.85 4637.9 334.92 4637.9 324.1 curveto
stroke
grestore
% Djibouti
gsave
1 setlinewidth
0 0 0 nodecolor
1468.9 522 40.09 18 ellipse_path stroke
0 0 0 nodecolor
14 /Times-Roman set_font
1445.9 518.3 moveto 46 (Djibouti) alignedtext
grestore
% Eritrea
gsave
1 setlinewidth
0 0 0 nodecolor
1406.9 450 34.39 18 ellipse_path stroke
0 0 0 nodecolor
14 /Times-Roman set_font
1388.4 446.3 moveto 37 (Eritrea) alignedtext
grestore
% Djibouti--Eritrea
gsave
1 setlinewidth
0 0 0 edgecolor
newpath 1454.83 505.12 moveto
1444.68 493.66 1431.04 478.26 1420.91 466.82 curveto
stroke
grestore
% Ethiopia
gsave
1 setlinewidth
0 0 0 nodecolor
1438.9 378 40.09 18 ellipse_path stroke
0 0 0 nodecolor
14 /Times-Roman set_font
1415.9 374.3 moveto 46 (Ethiopia) alignedtext
grestore
% Djibouti--Ethiopia
gsave
1 setlinewidth
0 0 0 edgecolor
newpath 1465.28 503.87 moveto
1459.51 476.58 1448.3 423.52 1442.53 396.19 curveto
stroke
grestore
% Somalia
gsave
1 setlinewidth
0 0 0 nodecolor
1519.9 234 40.09 18 ellipse_path stroke
0 0 0 nodecolor
14 /Times-Roman set_font
1496.9 230.3 moveto 46 (Somalia) alignedtext
grestore
% Djibouti--Somalia
gsave
1 setlinewidth
0 0 0 edgecolor
newpath 1474.26 504.1 moveto
1484.72 470.31 1507.59 391.83 1516.9 324 curveto
1520.3 299.19 1520.6 270.14 1520.36 252.15 curveto
stroke
grestore
% Eritrea--Sudan
gsave
1 setlinewidth
0 0 0 edgecolor
newpath 1398.55 432.53 moveto
1387.11 409.1 1366.97 364.49 1357.9 324 curveto
1352.41 299.52 1351.46 270.38 1351.51 252.28 curveto
stroke
grestore
% Eritrea--Ethiopia
gsave
1 setlinewidth
0 0 0 edgecolor
newpath 1414.48 432.41 moveto
1419.51 421.41 1426.08 407.03 1431.14 395.96 curveto
stroke
grestore
% Ethiopia--Sudan
gsave
1 setlinewidth
0 0 0 edgecolor
newpath 1416.01 362.94 moveto
1402.47 353.5 1386.03 339.91 1375.9 324 curveto
1361.7 301.73 1355.84 271.2 1353.46 252.3 curveto
stroke
grestore
% Ethiopia--Somalia
gsave
1 setlinewidth
0 0 0 edgecolor
newpath 1459.15 362.39 moveto
1471.16 352.74 1485.76 339.12 1494.9 324 curveto
1508.59 301.33 1515.01 270.91 1517.85 252.15 curveto
stroke
grestore
% Kenya
gsave
1 setlinewidth
0 0 0 nodecolor
1451.9 306 33.6 18 ellipse_path stroke
0 0 0 nodecolor
14 /Times-Roman set_font
1433.9 302.3 moveto 36 (Kenya) alignedtext
grestore
% Ethiopia--Kenya
gsave
1 setlinewidth
0 0 0 edgecolor
newpath 1442.04 360.05 moveto
1444.06 349.21 1446.66 335.18 1448.69 324.28 curveto
stroke
grestore
% Dominican Republic
gsave
1 setlinewidth
0 0 0 nodecolor
6960.9 594 84.49 18 ellipse_path stroke
0 0 0 nodecolor
14 /Times-Roman set_font
6903.9 590.3 moveto 114 (Dominican Republic) alignedtext
grestore
% Haiti
gsave
1 setlinewidth
0 0 0 nodecolor
6960.9 522 28.7 18 ellipse_path stroke
0 0 0 nodecolor
14 /Times-Roman set_font
6946.9 518.3 moveto 28 (Haiti) alignedtext
grestore
% Dominican Republic--Haiti
gsave
1 setlinewidth
0 0 0 edgecolor
newpath 6960.9 575.7 moveto
6960.9 564.85 6960.9 550.92 6960.9 540.1 curveto
stroke
grestore
% Egypt
gsave
1 setlinewidth
0 0 0 nodecolor
2147.9 378 31.7 18 ellipse_path stroke
0 0 0 nodecolor
14 /Times-Roman set_font
2131.4 374.3 moveto 33 (Egypt) alignedtext
grestore
% Egypt--Libya
gsave
1 setlinewidth
0 0 0 edgecolor
newpath 2117.12 373.21 moveto
2084.2 369.3 2030.44 363.31 1983.9 360 curveto
1572.62 330.73 1467.46 361.95 1056.9 324 curveto
1027.3 321.27 993.74 316.12 970.35 312.2 curveto
stroke
grestore
% Egypt--Sudan
gsave
1 setlinewidth
0 0 0 edgecolor
newpath 2120.13 369.17 moveto
2058.62 352.09 1906 311.16 1775.9 288 curveto
1641.51 264.08 1606.25 269.65 1470.9 252 curveto
1441.1 248.11 1407.17 243.22 1383.19 239.68 curveto
stroke
grestore
% Gaza Strip
gsave
1 setlinewidth
0 0 0 nodecolor
2467.9 306 48.19 18 ellipse_path stroke
0 0 0 nodecolor
14 /Times-Roman set_font
2438.9 302.3 moveto 58 (Gaza Strip) alignedtext
grestore
% Egypt--Gaza Strip
gsave
1 setlinewidth
0 0 0 edgecolor
newpath 2174.78 368.13 moveto
2183.95 365.3 2194.31 362.3 2203.9 360 curveto
2292.57 338.72 2316.94 344.08 2405.9 324 curveto
2414.06 322.16 2422.76 319.93 2430.99 317.71 curveto
stroke
grestore
% Israel
gsave
1 setlinewidth
0 0 0 nodecolor
2548.9 234 30.59 18 ellipse_path stroke
0 0 0 nodecolor
14 /Times-Roman set_font
2533.4 230.3 moveto 31 (Israel) alignedtext
grestore
% Egypt--Israel
gsave
1 setlinewidth
0 0 0 edgecolor
newpath 2174.82 368.32 moveto
2184 365.5 2194.35 362.46 2203.9 360 curveto
2278.26 340.83 2304.92 359.74 2372.9 324 curveto
2393.49 313.17 2391.22 300.41 2410.9 288 curveto
2446.28 265.69 2492.55 250.3 2521.5 242.07 curveto
stroke
grestore
% Gaza Strip--Israel
gsave
1 setlinewidth
0 0 0 edgecolor
newpath 2486.28 289.12 moveto
2500.09 277.18 2518.86 260.95 2532.24 249.39 curveto
stroke
grestore
% Jordan
gsave
1 setlinewidth
0 0 0 nodecolor
2726.9 162 34.39 18 ellipse_path stroke
0 0 0 nodecolor
14 /Times-Roman set_font
2708.4 158.3 moveto 37 (Jordan) alignedtext
grestore
% Israel--Jordan
gsave
1 setlinewidth
0 0 0 edgecolor
newpath 2573.78 223.25 moveto
2600.88 212.63 2645.48 195.14 2683.9 180 curveto
2689.12 177.94 2694.71 175.74 2700.06 173.62 curveto
stroke
grestore
% Syria
gsave
1 setlinewidth
0 0 0 nodecolor
2694.9 90 29.5 18 ellipse_path stroke
0 0 0 nodecolor
14 /Times-Roman set_font
2680.4 86.3 moveto 29 (Syria) alignedtext
grestore
% Israel--Syria
gsave
1 setlinewidth
0 0 0 edgecolor
newpath 2551.27 215.9 moveto
2554.8 196.34 2563.15 164.38 2581.9 144 curveto
2594.51 130.28 2641.18 111.07 2670.46 99.94 curveto
stroke
grestore
% Lebanon
gsave
1 setlinewidth
0 0 0 nodecolor
2632.9 162 41.69 18 ellipse_path stroke
0 0 0 nodecolor
14 /Times-Roman set_font
2608.9 158.3 moveto 48 (Lebanon) alignedtext
grestore
% Israel--Lebanon
gsave
1 setlinewidth
0 0 0 edgecolor
newpath 2565.89 218.83 moveto
2579.99 207.09 2599.99 190.42 2614.46 178.36 curveto
stroke
grestore
% West Bank
gsave
1 setlinewidth
0 0 0 nodecolor
2581.9 90 50.09 18 ellipse_path stroke
0 0 0 nodecolor
14 /Times-Roman set_font
2551.4 86.3 moveto 61 (West Bank) alignedtext
grestore
% Israel--West Bank
gsave
1 setlinewidth
0 0 0 edgecolor
newpath 2546.15 215.88 moveto
2543.87 197.68 2541.97 168.22 2548.9 144 curveto
2552.71 130.66 2560.96 117.41 2568.26 107.5 curveto
stroke
grestore
% El Salvador
gsave
1 setlinewidth
0 0 0 nodecolor
6187.9 522 51.99 18 ellipse_path stroke
0 0 0 nodecolor
14 /Times-Roman set_font
6155.9 518.3 moveto 64 (El Salvador) alignedtext
grestore
% El Salvador--Guatemala
gsave
1 setlinewidth
0 0 0 edgecolor
newpath 6225.05 509.13 moveto
6265.8 496.1 6330.77 475.33 6371.02 462.47 curveto
stroke
grestore
% El Salvador--Honduras
gsave
1 setlinewidth
0 0 0 edgecolor
newpath 6164.57 505.8 moveto
6122.39 478.33 6033.97 420.74 5992.4 393.66 curveto
stroke
grestore
% Honduras--Nicaragua
gsave
1 setlinewidth
0 0 0 edgecolor
newpath 5961.66 360.05 moveto
5956.32 349.05 5949.38 334.76 5944.05 323.79 curveto
stroke
grestore
% Estonia
gsave
1 setlinewidth
0 0 0 nodecolor
4115.9 450 37.09 18 ellipse_path stroke
0 0 0 nodecolor
14 /Times-Roman set_font
4095.4 446.3 moveto 41 (Estonia) alignedtext
grestore
% Estonia--Russia
gsave
1 setlinewidth
0 0 0 edgecolor
newpath 4123.85 432.39 moveto
4148.07 381.84 4220.67 230.27 4244.92 179.66 curveto
stroke
grestore
% Estonia--Latvia
gsave
1 setlinewidth
0 0 0 edgecolor
newpath 4104.53 432.76 moveto
4096.61 421.46 4086.1 406.44 4078.2 395.15 curveto
stroke
grestore
% Kenya--Tanzania
gsave
1 setlinewidth
0 0 0 edgecolor
newpath 1483.4 299.21 moveto
1552.84 286.45 1718.89 255.95 1794.37 242.08 curveto
stroke
grestore
% Kenya--Sudan
gsave
1 setlinewidth
0 0 0 edgecolor
newpath 1432.14 291.17 moveto
1414.49 278.82 1388.8 260.83 1371.27 248.56 curveto
stroke
grestore
% Kenya--Uganda
gsave
1 setlinewidth
0 0 0 edgecolor
newpath 1451.16 287.99 moveto
1451.22 268.51 1454.18 236.62 1470.9 216 curveto
1491.83 190.17 1527.96 176.53 1554.93 169.6 curveto
stroke
grestore
% Kenya--Somalia
gsave
1 setlinewidth
0 0 0 edgecolor
newpath 1466.99 289.46 moveto
1478.1 278.03 1493.16 262.52 1504.37 250.98 curveto
stroke
grestore
% Finland
gsave
1 setlinewidth
0 0 0 nodecolor
5736.9 306 37.89 18 ellipse_path stroke
0 0 0 nodecolor
14 /Times-Roman set_font
5715.9 302.3 moveto 42 (Finland) alignedtext
grestore
% Finland--Russia
gsave
1 setlinewidth
0 0 0 edgecolor
newpath 5708.76 293.74 moveto
5685.03 283.84 5650.46 268.48 5621.9 252 curveto
5597.86 238.14 5597.17 224.92 5570.9 216 curveto
5446.28 173.67 4482.74 164.63 4287.38 163.22 curveto
stroke
grestore
% Norway
gsave
1 setlinewidth
0 0 0 nodecolor
5669.9 234 38.99 18 ellipse_path stroke
0 0 0 nodecolor
14 /Times-Roman set_font
5647.9 230.3 moveto 44 (Norway) alignedtext
grestore
% Finland--Norway
gsave
1 setlinewidth
0 0 0 edgecolor
newpath 5721.69 289.12 moveto
5710.73 277.66 5695.99 262.26 5685.04 250.82 curveto
stroke
grestore
% Sweden
gsave
1 setlinewidth
0 0 0 nodecolor
5702.9 162 38.19 18 ellipse_path stroke
0 0 0 nodecolor
14 /Times-Roman set_font
5681.4 158.3 moveto 43 (Sweden) alignedtext
grestore
% Finland--Sweden
gsave
1 setlinewidth
0 0 0 edgecolor
newpath 5733.58 287.86 moveto
5730.03 269.88 5724.06 240.84 5717.9 216 curveto
5714.9 203.93 5711.08 190.46 5708.04 180.11 curveto
stroke
grestore
% Norway--Russia
gsave
1 setlinewidth
0 0 0 edgecolor
newpath 5639.29 222.66 moveto
5630.25 220.02 5620.26 217.51 5610.9 216 curveto
5344.76 173.11 4471.81 164.56 4287.33 163.22 curveto
stroke
grestore
% Norway--Sweden
gsave
1 setlinewidth
0 0 0 edgecolor
newpath 5677.88 216.05 moveto
5683.07 205.05 5689.81 190.76 5694.98 179.79 curveto
stroke
grestore
% Gibraltar
gsave
1 setlinewidth
0 0 0 nodecolor
4893.9 306 42.49 18 ellipse_path stroke
0 0 0 nodecolor
14 /Times-Roman set_font
4869.4 302.3 moveto 49 (Gibraltar) alignedtext
grestore
% Gibraltar--Spain
gsave
1 setlinewidth
0 0 0 edgecolor
newpath 4916.27 290.5 moveto
4935.67 277.92 4963.48 259.9 4982.09 247.84 curveto
stroke
grestore
% Guinea-Bissau--Senegal
gsave
1 setlinewidth
0 0 0 edgecolor
newpath 216.36 217.29 moveto
235.19 205.2 260.97 188.64 279.1 177 curveto
stroke
grestore
% The Gambia
gsave
1 setlinewidth
0 0 0 nodecolor
300.9 90 55.49 18 ellipse_path stroke
0 0 0 nodecolor
14 /Times-Roman set_font
266.4 86.3 moveto 69 (The Gambia) alignedtext
grestore
% Senegal--The Gambia
gsave
1 setlinewidth
0 0 0 edgecolor
newpath 300.9 143.7 moveto
300.9 132.85 300.9 118.92 300.9 108.1 curveto
stroke
grestore
% Indonesia
gsave
1 setlinewidth
0 0 0 nodecolor
7182.9 306 44.69 18 ellipse_path stroke
0 0 0 nodecolor
14 /Times-Roman set_font
7156.4 302.3 moveto 53 (Indonesia) alignedtext
grestore
% Indonesia--Malaysia
gsave
1 setlinewidth
0 0 0 edgecolor
newpath 7158.94 290.67 moveto
7138.75 278.59 7110 261.39 7089.82 249.32 curveto
stroke
grestore
% Papua New Guinea
gsave
1 setlinewidth
0 0 0 nodecolor
7335.9 234 79.09 18 ellipse_path stroke
0 0 0 nodecolor
14 /Times-Roman set_font
7282.9 230.3 moveto 106 (Papua New Guinea) alignedtext
grestore
% Indonesia--Papua New Guinea
gsave
1 setlinewidth
0 0 0 edgecolor
newpath 7211.31 292 moveto
7237.07 280.22 7275.05 262.84 7302.29 250.37 curveto
stroke
grestore
% Timor-Leste
gsave
1 setlinewidth
0 0 0 nodecolor
7182.9 234 55.49 18 ellipse_path stroke
0 0 0 nodecolor
14 /Times-Roman set_font
7148.4 230.3 moveto 69 (Timor-Leste) alignedtext
grestore
% Indonesia--Timor-Leste
gsave
1 setlinewidth
0 0 0 edgecolor
newpath 7182.9 287.7 moveto
7182.9 276.85 7182.9 262.92 7182.9 252.1 curveto
stroke
grestore
% Iraq--Turkey
gsave
1 setlinewidth
0 0 0 edgecolor
newpath 3468.05 215.89 moveto
3467.45 184.03 3461.88 114.93 3426.9 72 curveto
3407.42 48.1 3374.54 34.2 3349.97 26.68 curveto
stroke
grestore
% Iraq--Jordan
gsave
1 setlinewidth
0 0 0 edgecolor
newpath 3440.81 232.03 moveto
3328.76 227.85 2901.21 210.21 2769.9 180 curveto
2763.95 178.63 2757.74 176.58 2751.96 174.37 curveto
stroke
grestore
% Kuwait
gsave
1 setlinewidth
0 0 0 nodecolor
3750.9 162 36.29 18 ellipse_path stroke
0 0 0 nodecolor
14 /Times-Roman set_font
3730.9 158.3 moveto 40 (Kuwait) alignedtext
grestore
% Iraq--Kuwait
gsave
1 setlinewidth
0 0 0 edgecolor
newpath 3488.5 222.28 moveto
3493.45 219.98 3498.79 217.73 3503.9 216 curveto
3577.64 191.05 3667.86 175.22 3716.26 167.86 curveto
stroke
grestore
% Saudi Arabia
gsave
1 setlinewidth
0 0 0 nodecolor
6783.9 90 57.39 18 ellipse_path stroke
0 0 0 nodecolor
14 /Times-Roman set_font
6747.9 86.3 moveto 72 (Saudi Arabia) alignedtext
grestore
% Iraq--Saudi Arabia
gsave
1 setlinewidth
0 0 0 edgecolor
newpath 3488.39 221.95 moveto
3493.35 219.66 3498.72 217.5 3503.9 216 curveto
3629.49 179.62 3667.4 204.22 3795.9 180 curveto
3859.45 168.02 3872.78 152.54 3936.9 144 curveto
4205.99 108.17 6108.53 115.71 6379.9 108 curveto
6504.1 104.47 6649.68 97.7 6727.71 93.85 curveto
stroke
grestore
% Iraq--Syria
gsave
1 setlinewidth
0 0 0 edgecolor
newpath 3442.73 226.71 moveto
3378.19 210.79 3201.32 168.38 3051.9 144 curveto
2911.52 121.09 2871.28 144.83 2733.9 108 curveto
2728.33 106.51 2722.54 104.35 2717.17 102.06 curveto
stroke
grestore
% Jordan--Syria
gsave
1 setlinewidth
0 0 0 edgecolor
newpath 2719.31 144.41 moveto
2714.21 133.25 2707.51 118.6 2702.42 107.47 curveto
stroke
grestore
% Jordan--West Bank
gsave
1 setlinewidth
0 0 0 edgecolor
newpath 2702.3 149.13 moveto
2676.93 136.88 2637.39 117.79 2610.6 104.86 curveto
stroke
grestore
% Saudi Arabi
gsave
1 setlinewidth
0 0 0 nodecolor
2795.9 90 53.09 18 ellipse_path stroke
0 0 0 nodecolor
14 /Times-Roman set_font
2762.9 86.3 moveto 66 (Saudi Arabi) alignedtext
grestore
% Jordan--Saudi Arabi
gsave
1 setlinewidth
0 0 0 edgecolor
newpath 2742.21 145.46 moveto
2753.33 134.19 2768.34 118.96 2779.66 107.47 curveto
stroke
grestore
% Kuwait--Saudi Arabia
gsave
1 setlinewidth
0 0 0 edgecolor
newpath 3785.45 156.2 moveto
3816.4 152.13 3863.08 146.56 3903.9 144 curveto
5002.3 75.15 5279.77 139.14 6379.9 108 curveto
6504.1 104.48 6649.68 97.7 6727.71 93.85 curveto
stroke
grestore
% United Arab Emirates
gsave
1 setlinewidth
0 0 0 nodecolor
6780.9 18 89.08 18 ellipse_path stroke
0 0 0 nodecolor
14 /Times-Roman set_font
6720.4 14.3 moveto 121 (United Arab Emirates) alignedtext
grestore
% Saudi Arabia--United Arab Emirates
gsave
1 setlinewidth
0 0 0 edgecolor
newpath 6783.15 71.7 moveto
6782.69 60.85 6782.09 46.92 6781.63 36.1 curveto
stroke
grestore
% Yemen
gsave
1 setlinewidth
0 0 0 nodecolor
6923.9 18 36.29 18 ellipse_path stroke
0 0 0 nodecolor
14 /Times-Roman set_font
6903.9 14.3 moveto 40 (Yemen) alignedtext
grestore
% Saudi Arabia--Yemen
gsave
1 setlinewidth
0 0 0 edgecolor
newpath 6813.24 74.33 moveto
6838.74 61.58 6875.25 43.32 6899.26 31.32 curveto
stroke
grestore
% Syria--Turkey
gsave
1 setlinewidth
0 0 0 edgecolor
newpath 2716.73 78.02 moveto
2722.22 75.68 2728.17 73.47 2733.9 72 curveto
2935.82 20.27 3188.32 17.38 3281.33 18.3 curveto
stroke
grestore
% Ireland
gsave
1 setlinewidth
0 0 0 nodecolor
7098.9 594 36 18 ellipse_path stroke
0 0 0 nodecolor
14 /Times-Roman set_font
7079.4 590.3 moveto 39 (Ireland) alignedtext
grestore
% United Kingdom
gsave
1 setlinewidth
0 0 0 nodecolor
7098.9 522 70.69 18 ellipse_path stroke
0 0 0 nodecolor
14 /Times-Roman set_font
7052.4 518.3 moveto 93 (United Kingdom) alignedtext
grestore
% Ireland--United Kingdom
gsave
1 setlinewidth
0 0 0 edgecolor
newpath 7098.9 575.7 moveto
7098.9 564.85 7098.9 550.92 7098.9 540.1 curveto
stroke
grestore
% Lebanon--Syria
gsave
1 setlinewidth
0 0 0 edgecolor
newpath 2647.27 144.76 moveto
2657.58 133.13 2671.36 117.58 2681.44 106.19 curveto
stroke
grestore
% Lesotho
gsave
1 setlinewidth
0 0 0 nodecolor
2324.9 306 38.99 18 ellipse_path stroke
0 0 0 nodecolor
14 /Times-Roman set_font
2302.9 302.3 moveto 44 (Lesotho) alignedtext
grestore
% Lesotho--South Africa
gsave
1 setlinewidth
0 0 0 edgecolor
newpath 2304.8 290.5 moveto
2288.7 278.88 2266.17 262.62 2249.65 250.7 curveto
stroke
grestore
% Malawi
gsave
1 setlinewidth
0 0 0 nodecolor
1936.9 378 38.19 18 ellipse_path stroke
0 0 0 nodecolor
14 /Times-Roman set_font
1915.4 374.3 moveto 43 (Malawi) alignedtext
grestore
% Malawi--Zambia
gsave
1 setlinewidth
0 0 0 edgecolor
newpath 1940.19 360.02 moveto
1945.97 330.59 1958.48 268.25 1970.9 216 curveto
1973.75 203.96 1977.32 190.48 1980.14 180.13 curveto
stroke
grestore
% Malawi--Tanzania
gsave
1 setlinewidth
0 0 0 edgecolor
newpath 1928.65 360.15 moveto
1919.24 341.65 1902.82 311.46 1884.9 288 curveto
1874.57 274.48 1861.06 260.81 1850.41 250.74 curveto
stroke
grestore
% Mozambique
gsave
1 setlinewidth
0 0 0 nodecolor
2070.9 306 57.69 18 ellipse_path stroke
0 0 0 nodecolor
14 /Times-Roman set_font
2034.4 302.3 moveto 73 (Mozambique) alignedtext
grestore
% Malawi--Mozambique
gsave
1 setlinewidth
0 0 0 edgecolor
newpath 1961.47 364.16 moveto
1984.29 352.24 2018.26 334.5 2042.29 321.94 curveto
stroke
grestore
% Mozambique--Zambia
gsave
1 setlinewidth
0 0 0 edgecolor
newpath 2060.69 288.15 moveto
2044.14 260.82 2011.63 207.14 1995.08 179.82 curveto
stroke
grestore
% Mozambique--South Africa
gsave
1 setlinewidth
0 0 0 edgecolor
newpath 2102.67 290.83 moveto
2129.99 278.65 2169.2 261.17 2196.44 249.02 curveto
stroke
grestore
% Mozambique--Zimbabwe
gsave
1 setlinewidth
0 0 0 edgecolor
newpath 2069.17 287.9 moveto
2066.84 257.22 2065.49 191.58 2089.9 144 curveto
2097.8 128.59 2112.14 115.42 2124.58 106.07 curveto
stroke
grestore
% Mozambique--Tanzania
gsave
1 setlinewidth
0 0 0 edgecolor
newpath 2030.25 293.05 moveto
1984.32 279.54 1910.34 257.78 1867.19 245.09 curveto
stroke
grestore
% Mozambique--Swaziland
gsave
1 setlinewidth
0 0 0 edgecolor
newpath 2079.79 288.15 moveto
2094.23 260.82 2122.58 207.14 2137.01 179.82 curveto
stroke
grestore
% Moldova
gsave
1 setlinewidth
0 0 0 nodecolor
3555.9 234 42.79 18 ellipse_path stroke
0 0 0 nodecolor
14 /Times-Roman set_font
3530.9 230.3 moveto 50 (Moldova) alignedtext
grestore
% Moldova--Ukraine
gsave
1 setlinewidth
0 0 0 edgecolor
newpath 3577.37 218 moveto
3605.72 198.74 3657.69 165.27 3705.9 144 curveto
3752.7 123.35 3809.94 107.61 3845.67 98.84 curveto
stroke
grestore
% Moldova--Romania
gsave
1 setlinewidth
0 0 0 edgecolor
newpath 3555.9 215.7 moveto
3555.9 204.85 3555.9 190.92 3555.9 180.1 curveto
stroke
grestore
% Netherlands Antilles
gsave
1 setlinewidth
0 0 0 nodecolor
7243.9 594 83.39 18 ellipse_path stroke
0 0 0 nodecolor
14 /Times-Roman set_font
7187.9 590.3 moveto 112 (Netherlands Antilles) alignedtext
grestore
% Saint Martin
gsave
1 setlinewidth
0 0 0 nodecolor
7243.9 522 55.79 18 ellipse_path stroke
0 0 0 nodecolor
14 /Times-Roman set_font
7208.9 518.3 moveto 70 (Saint Martin) alignedtext
grestore
% Netherlands Antilles--Saint Martin
gsave
1 setlinewidth
0 0 0 edgecolor
newpath 7243.9 575.7 moveto
7243.9 564.85 7243.9 550.92 7243.9 540.1 curveto
stroke
grestore
% Oman
gsave
1 setlinewidth
0 0 0 nodecolor
6900.9 162 32.49 18 ellipse_path stroke
0 0 0 nodecolor
14 /Times-Roman set_font
6883.9 158.3 moveto 34 (Oman) alignedtext
grestore
% Oman--Saudi Arabia
gsave
1 setlinewidth
0 0 0 edgecolor
newpath 6879.71 148.32 moveto
6859.95 136.5 6830.45 118.85 6809.41 106.27 curveto
stroke
grestore
% Oman--United Arab Emirates
gsave
1 setlinewidth
0 0 0 edgecolor
newpath 6893.78 144.33 moveto
6885.2 125.45 6869.46 94.4 6849.9 72 curveto
6837.47 57.78 6820.73 44.81 6806.85 35.26 curveto
stroke
grestore
% Oman--Yemen
gsave
1 setlinewidth
0 0 0 edgecolor
newpath 6903.67 143.87 moveto
6908.09 116.58 6916.68 63.52 6921.11 36.19 curveto
stroke
grestore
% Portugal
gsave
1 setlinewidth
0 0 0 nodecolor
4994.9 306 40.09 18 ellipse_path stroke
0 0 0 nodecolor
14 /Times-Roman set_font
4971.9 302.3 moveto 46 (Portugal) alignedtext
grestore
% Portugal--Spain
gsave
1 setlinewidth
0 0 0 edgecolor
newpath 4996.63 287.7 moveto
4997.71 276.85 4999.1 262.92 5000.18 252.1 curveto
stroke
grestore
% Qatar
gsave
1 setlinewidth
0 0 0 nodecolor
6819.9 162 30.59 18 ellipse_path stroke
0 0 0 nodecolor
14 /Times-Roman set_font
6804.4 158.3 moveto 31 (Qatar) alignedtext
grestore
% Qatar--Saudi Arabia
gsave
1 setlinewidth
0 0 0 edgecolor
newpath 6811.36 144.41 moveto
6805.71 133.41 6798.31 119.03 6792.62 107.96 curveto
stroke
grestore
endpage
showpage
grestore
%%PageTrailer
%%EndPage: 1
%%Trailer
%%Pages: 1
%%BoundingBox: 36 36 7459 656
end
restore
%%EOF
